,Day,Deterministic,Expected,Stochastic,Stochastic corrected,Perfect,Difference,Difference cor
0,0.0,10705.8093479,100065.04,0.0,0.0,0.0,10705.8093479,10705.8093479
1,1.0,12652.4672248,100065.04,22927.881325,20061.8961594,0.0,-10275.4141002,-7409.4289346
2,2.0,14295.0,100065.04,0.0,0.0,0.0,14295.0,14295.0
3,3.0,13807.4058686,100065.04,28102.4058686,28102.4058686,0.0,-14295.0,-14295.0
4,4.0,14295.0,100065.04,0.0,0.0,0.0,14295.0,14295.0
5,5.0,14295.0,100065.04,28590.0,25016.25,0.0,-14295.0,-10721.25
6,6.0,12652.4672248,100065.04,26992.450854,31491.192663,0.0,-14339.9836292,-18838.7254382
7,7.0,13111.5413033,100065.04,0.0,0.0,0.0,13111.5413033,13111.5413033
8,8.0,13111.5413033,100065.04,0.0,0.0,0.0,13111.5413033,13111.5413033
9,9.0,14295.0,100065.04,28590.0,28590.0,0.0,-14295.0,-14295.0
10,10.0,14295.0,100065.04,0.0,0.0,0.0,14295.0,14295.0
11,11.0,11463.9406625,100065.04,0.0,0.0,0.0,11463.9406625,11463.9406625
12,12.0,13807.4058686,100065.04,0.0,0.0,0.0,13807.4058686,13807.4058686
13,13.0,14295.0,100065.04,14295.0,20013.0,0.0,0.0,-5718.0
14,14.0,11463.9406625,100065.04,16521.0312641,19274.5364748,0.0,-5057.09060161,-7810.5958123
15,15.0,5210.84547645,100065.04,0.0,0.0,0.0,5210.84547645,5210.84547645
16,16.0,11463.9406625,100065.04,0.0,0.0,0.0,11463.9406625,11463.9406625
17,17.0,0.0,100065.04,0.0,0.0,0.0,0.0,0.0
18,18.0,11463.9406625,100065.04,13354.1252451,15579.812786,0.0,-1890.1845826,-4115.87212345
19,19.0,14295.0,100065.04,0.0,0.0,0.0,14295.0,14295.0
20,20.0,12652.4672248,100065.04,0.0,0.0,0.0,12652.4672248,12652.4672248
21,21.0,13496.225427,100065.04,13111.5413033,15296.7981872,0.0,384.684123668,-1800.57276022
22,22.0,14295.0,100065.04,28590.0,28590.0,0.0,-14295.0,-14295.0
23,23.0,291.565886949,100065.04,0.0,0.0,0.0,291.565886949,291.565886949
24,24.0,9824.87602925,100065.04,0.0,0.0,0.0,9824.87602925,9824.87602925
25,25.0,12652.4672248,100065.04,38875.5498315,38875.5498315,0.0,-26223.0826067,-26223.0826067
26,26.0,14295.0,100065.04,28590.0,28590.0,0.0,-14295.0,-14295.0
27,27.0,14295.0,100065.04,28590.0,33355.0,0.0,-14295.0,-19060.0
28,28.0,14295.0,100065.04,0.0,0.0,0.0,14295.0,14295.0
29,29.0,13496.225427,100065.04,0.0,0.0,0.0,13496.225427,13496.225427
30,30.0,14295.0,100065.04,0.0,0.0,0.0,14295.0,14295.0
31,31.0,13807.4058686,100065.04,27614.8117372,21478.1869067,0.0,-13807.4058686,-7670.78103812
32,32.0,14295.0,100065.04,14295.0,16677.5,0.0,0.0,-2382.5
33,33.0,12652.4672248,100065.04,0.0,0.0,0.0,12652.4672248,12652.4672248
34,34.0,14295.0,100065.04,0.0,0.0,0.0,14295.0,14295.0
35,35.0,14295.0,100065.04,14295.0,25016.25,0.0,0.0,-10721.25
36,36.0,14295.0,100065.04,0.0,0.0,0.0,14295.0,14295.0
37,37.0,13111.5413033,100065.04,24116.4078873,28135.8092019,0.0,-11004.866584,-15024.2678985
38,38.0,14295.0,100065.04,28590.0,33355.0,0.0,-14295.0,-19060.0
39,39.0,14295.0,100065.04,14295.0,16677.5,0.0,0.0,-2382.5
40,40.0,13111.5413033,100065.04,0.0,0.0,0.0,13111.5413033,13111.5413033
41,41.0,14295.0,100065.04,0.0,0.0,0.0,14295.0,14295.0
42,42.0,14295.0,100065.04,0.0,0.0,0.0,14295.0,14295.0
43,43.0,13496.225427,100065.04,13807.4058686,19330.3682161,0.0,-311.180441613,-5834.14278906
44,44.0,14295.0,100065.04,0.0,0.0,0.0,14295.0,14295.0
45,45.0,13111.5413033,100065.04,14295.0,20013.0,0.0,-1183.45869666,-6901.45869666
46,46.0,13111.5413033,100065.04,27406.5413033,31974.2981872,0.0,-14295.0,-18862.7568839
47,47.0,14295.0,100065.04,0.0,0.0,0.0,14295.0,14295.0
48,48.0,14295.0,100065.04,0.0,0.0,0.0,14295.0,14295.0
49,49.0,10705.8093479,100065.04,0.0,0.0,0.0,10705.8093479,10705.8093479
50,50.0,0.0,100065.04,1485.18405496,2079.25767694,0.0,-1485.18405496,-2079.25767694
51,51.0,5210.84547645,100065.04,0.0,0.0,0.0,5210.84547645,5210.84547645
52,52.0,13807.4058686,100065.04,14295.0,16677.5,0.0,-487.594131382,-2870.09413138
53,53.0,14295.0,100065.04,0.0,0.0,0.0,14295.0,14295.0
54,54.0,6487.16981485,100065.04,0.0,0.0,0.0,6487.16981485,6487.16981485
55,55.0,13111.5413033,100065.04,25758.9406625,36062.5169275,0.0,-12647.3993592,-22950.9756242
56,56.0,14295.0,100065.04,28590.0,50032.5,0.0,-14295.0,-35737.5
57,57.0,14295.0,100065.04,14295.0,16677.5,0.0,0.0,-2382.5
58,58.0,14295.0,100065.04,0.0,0.0,0.0,14295.0,14295.0
59,59.0,14295.0,100065.04,14295.0,12508.125,0.0,0.0,1786.875
60,60.0,7700.8462787,100065.04,0.0,0.0,0.0,7700.8462787,7700.8462787
61,61.0,9824.87602925,100065.04,0.0,0.0,0.0,9824.87602925,9824.87602925
62,62.0,9824.87602925,100065.04,0.0,0.0,0.0,9824.87602925,9824.87602925
63,63.0,9824.87602925,100065.04,0.0,0.0,0.0,9824.87602925,9824.87602925
64,64.0,5210.84547645,100065.04,0.0,0.0,0.0,5210.84547645,5210.84547645
65,65.0,7700.8462787,100065.04,0.0,0.0,0.0,7700.8462787,7700.8462787
66,66.0,12652.4672248,100065.04,0.0,0.0,0.0,12652.4672248,12652.4672248
67,67.0,9824.87602925,100065.04,0.0,0.0,0.0,9824.87602925,9824.87602925
68,68.0,9824.87602925,100065.04,12652.4672248,22141.8176434,0.0,-2827.59119556,-12316.9416142
69,69.0,12652.4672248,100065.04,0.0,0.0,0.0,12652.4672248,12652.4672248
70,70.0,10705.8093479,100065.04,0.0,0.0,0.0,10705.8093479,10705.8093479
71,71.0,10705.8093479,100065.04,10705.8093479,10705.8093479,0.0,0.0,0.0
72,72.0,10705.8093479,100065.04,0.0,0.0,0.0,10705.8093479,10705.8093479
73,73.0,2648.31589716,100065.04,2648.31589716,3707.64225603,0.0,0.0,-1059.32635886
74,74.0,7700.8462787,100065.04,14188.0160935,12414.5140819,0.0,-6487.16981485,-4713.66780316
75,75.0,5210.84547645,100065.04,4133.49995212,5786.89993297,0.0,1077.34552433,-576.054456519
76,76.0,14295.0,100065.04,13111.5413033,13111.5413033,0.0,1183.45869666,1183.45869666
77,77.0,13111.5413033,100065.04,25304.9344496,35426.9082295,0.0,-12193.3931463,-22315.3669261
78,78.0,13111.5413033,100065.04,0.0,0.0,0.0,13111.5413033,13111.5413033
79,79.0,12652.4672248,100065.04,11463.9406625,11463.9406625,0.0,1188.52656229,1188.52656229
80,80.0,14295.0,100065.04,14295.0,16677.5,0.0,0.0,-2382.5
81,81.0,14295.0,100065.04,25271.3465311,35379.8851436,0.0,-10976.3465311,-21084.8851436
82,82.0,10705.8093479,100065.04,20284.1256479,23664.8132559,0.0,-9578.3163,-12959.003908
83,83.0,8820.18498543,100065.04,14031.0304619,16369.5355389,0.0,-5210.84547645,-7549.35055343
84,84.0,13111.5413033,100065.04,21288.8166918,21288.8166918,0.0,-8177.27538843,-8177.27538843
85,85.0,1485.18405496,100065.04,0.0,0.0,0.0,1485.18405496,1485.18405496
86,86.0,5210.84547645,100065.04,27688.1887305,27688.1887305,0.0,-22477.3432541,-22477.3432541
87,87.0,0.0,100065.04,1485.18405496,2079.25767694,0.0,-1485.18405496,-2079.25767694
88,88.0,11463.9406625,100065.04,13496.225427,13496.225427,0.0,-2032.28476449,-2032.28476449
89,89.0,14295.0,100065.04,0.0,0.0,0.0,14295.0,14295.0
90,90.0,12652.4672248,100065.04,25758.9406625,30052.0974396,0.0,-13106.4734377,-17399.6302148
91,91.0,6487.16981485,100065.04,5210.84547645,7295.18366703,0.0,1276.3243384,-808.013852178
92,92.0,9824.87602925,100065.04,26148.6926518,36608.1697125,0.0,-16323.8166226,-26783.2936833
93,93.0,8820.18498543,100065.04,0.0,0.0,0.0,8820.18498543,8820.18498543
94,94.0,9824.87602925,100065.04,0.0,0.0,0.0,9824.87602925,9824.87602925
95,95.0,13496.225427,100065.04,27791.225427,27791.225427,0.0,-14295.0,-14295.0
96,96.0,10705.8093479,100065.04,0.0,0.0,0.0,10705.8093479,10705.8093479
97,97.0,8820.18498543,100065.04,26947.4672248,31438.7117623,0.0,-18127.2822394,-22618.5267768
98,98.0,7700.8462787,100065.04,0.0,0.0,0.0,7700.8462787,7700.8462787
99,99.0,12652.4672248,100065.04,0.0,0.0,0.0,12652.4672248,12652.4672248
100,100.0,13496.225427,100065.04,0.0,0.0,0.0,13496.225427,13496.225427
101,101.0,14295.0,100065.04,0.0,0.0,0.0,14295.0,14295.0
102,102.0,8820.18498543,100065.04,0.0,0.0,0.0,8820.18498543,8820.18498543
103,103.0,291.565886949,100065.04,0.0,0.0,0.0,291.565886949,291.565886949
104,104.0,13111.5413033,100065.04,22936.4173326,26759.1535547,0.0,-9824.87602925,-13647.6122513
105,105.0,14295.0,100065.04,28590.0,28590.0,0.0,-14295.0,-14295.0
106,106.0,13496.225427,100065.04,0.0,0.0,0.0,13496.225427,13496.225427
107,107.0,7700.8462787,100065.04,0.0,0.0,0.0,7700.8462787,7700.8462787
108,108.0,1485.18405496,100065.04,0.0,0.0,0.0,1485.18405496,1485.18405496
109,109.0,291.565886949,100065.04,1485.18405496,1485.18405496,0.0,-1193.61816801,-1193.61816801
110,110.0,0.0,100065.04,291.565886949,408.192241728,0.0,-291.565886949,-408.192241728
111,111.0,8820.18498543,100065.04,0.0,0.0,0.0,8820.18498543,8820.18498543
112,112.0,0.0,100065.04,291.565886949,291.565886949,0.0,-291.565886949,-291.565886949
113,113.0,13111.5413033,100065.04,0.0,0.0,0.0,13111.5413033,13111.5413033
114,114.0,5210.84547645,100065.04,24202.034775,24202.034775,0.0,-18991.1892985,-18991.1892985
115,115.0,14295.0,100065.04,28102.4058686,32786.1401801,0.0,-13807.4058686,-18491.1401801
116,116.0,11463.9406625,100065.04,0.0,0.0,0.0,11463.9406625,11463.9406625
117,117.0,14295.0,100065.04,0.0,0.0,0.0,14295.0,14295.0
118,118.0,14295.0,100065.04,28590.0,40026.0,0.0,-14295.0,-25731.0
119,119.0,13496.225427,100065.04,14295.0,16677.5,0.0,-798.774572995,-3181.274573
120,120.0,14295.0,100065.04,0.0,0.0,0.0,14295.0,14295.0
121,121.0,13807.4058686,100065.04,28590.0,40026.0,0.0,-14782.5941314,-26218.5941314
122,122.0,7700.8462787,100065.04,0.0,0.0,0.0,7700.8462787,7700.8462787
123,123.0,5210.84547645,100065.04,8820.18498543,8820.18498543,0.0,-3609.33950899,-3609.33950899
124,124.0,14295.0,100065.04,13807.4058686,13807.4058686,0.0,487.594131382,487.594131382
125,125.0,10705.8093479,100065.04,0.0,0.0,0.0,10705.8093479,10705.8093479
126,126.0,6487.16981485,100065.04,5210.84547645,6079.31972252,0.0,1276.3243384,407.850092327
127,127.0,14295.0,100065.04,28590.0,33355.0,0.0,-14295.0,-19060.0
128,128.0,14295.0,100065.04,0.0,0.0,0.0,14295.0,14295.0
129,129.0,11463.9406625,100065.04,11463.9406625,13374.5974396,0.0,0.0,-1910.65677709
130,130.0,14295.0,100065.04,28590.0,28590.0,0.0,-14295.0,-14295.0
131,131.0,13807.4058686,100065.04,13807.4058686,19330.3682161,0.0,0.0,-5522.96234745
132,132.0,13807.4058686,100065.04,28102.4058686,32786.1401801,0.0,-14295.0,-18978.7343114
133,133.0,13111.5413033,100065.04,0.0,0.0,0.0,13111.5413033,13111.5413033
134,134.0,6487.16981485,100065.04,0.0,0.0,0.0,6487.16981485,6487.16981485
135,135.0,14295.0,100065.04,0.0,0.0,0.0,14295.0,14295.0
136,136.0,13496.225427,100065.04,0.0,0.0,0.0,13496.225427,13496.225427
137,137.0,13496.225427,100065.04,0.0,0.0,0.0,13496.225427,13496.225427
138,138.0,12652.4672248,100065.04,0.0,0.0,0.0,12652.4672248,12652.4672248
139,139.0,13111.5413033,100065.04,26918.947172,23554.0787755,0.0,-13807.4058686,-10442.5374721
140,140.0,11463.9406625,100065.04,26947.4672248,31438.7117623,0.0,-15483.5265623,-19974.7710998
141,141.0,12652.4672248,100065.04,0.0,0.0,0.0,12652.4672248,12652.4672248
142,142.0,12652.4672248,100065.04,0.0,0.0,0.0,12652.4672248,12652.4672248
143,143.0,14295.0,100065.04,0.0,0.0,0.0,14295.0,14295.0
144,144.0,13807.4058686,100065.04,0.0,0.0,0.0,13807.4058686,13807.4058686
145,145.0,7700.8462787,100065.04,22477.3432541,26223.5671297,0.0,-14776.4969754,-18522.720851
146,146.0,10705.8093479,100065.04,19649.7520585,22924.7107349,0.0,-8943.94271055,-12218.901387
147,147.0,14295.0,100065.04,14295.0,16677.5,0.0,0.0,-2382.5
148,148.0,8820.18498543,100065.04,13111.5413033,18356.1578247,0.0,-4291.3563179,-9535.97283924
149,149.0,13807.4058686,100065.04,0.0,0.0,0.0,13807.4058686,13807.4058686
150,150.0,13807.4058686,100065.04,0.0,0.0,0.0,13807.4058686,13807.4058686
151,151.0,13496.225427,100065.04,28102.4058686,28102.4058686,0.0,-14606.1804416,-14606.1804416
152,152.0,14295.0,100065.04,28590.0,28590.0,0.0,-14295.0,-14295.0
153,153.0,14295.0,100065.04,0.0,0.0,0.0,14295.0,14295.0
154,154.0,11463.9406625,100065.04,26918.947172,31405.4383673,0.0,-15455.0065094,-19941.4977048
155,155.0,14295.0,100065.04,28590.0,33355.0,0.0,-14295.0,-19060.0
156,156.0,11463.9406625,100065.04,28590.0,33355.0,0.0,-17126.0593375,-21891.0593375
157,157.0,13496.225427,100065.04,14295.0,16677.5,0.0,-798.774572995,-3181.274573
158,158.0,5210.84547645,100065.04,0.0,0.0,0.0,5210.84547645,5210.84547645
159,159.0,10705.8093479,100065.04,0.0,0.0,0.0,10705.8093479,10705.8093479
160,160.0,291.565886949,100065.04,14031.0304619,10913.0236926,0.0,-13739.4645749,-10621.4578056
161,161.0,8820.18498543,100065.04,0.0,0.0,0.0,8820.18498543,8820.18498543
162,162.0,11463.9406625,100065.04,10705.8093479,10705.8093479,0.0,758.131314566,758.131314566
163,163.0,7700.8462787,100065.04,0.0,0.0,0.0,7700.8462787,7700.8462787
164,164.0,0.0,100065.04,11310.0600842,13195.0700982,0.0,-11310.0600842,-13195.0700982
165,165.0,14295.0,100065.04,14295.0,16677.5,0.0,0.0,-2382.5
166,166.0,13496.225427,100065.04,13111.5413033,13111.5413033,0.0,384.684123668,384.684123668
167,167.0,13111.5413033,100065.04,26918.947172,31405.4383673,0.0,-13807.4058686,-18293.8970639
168,168.0,12652.4672248,100065.04,0.0,0.0,0.0,12652.4672248,12652.4672248
169,169.0,13111.5413033,100065.04,12652.4672248,12652.4672248,0.0,459.074078531,459.074078531
170,170.0,13807.4058686,100065.04,22927.881325,26749.1948792,0.0,-9120.47545641,-12941.7890106
171,171.0,13111.5413033,100065.04,26992.450854,37789.4311956,0.0,-13880.9095507,-24677.8898923
172,172.0,14295.0,100065.04,0.0,0.0,0.0,14295.0,14295.0
173,173.0,14295.0,100065.04,0.0,0.0,0.0,14295.0,14295.0
174,174.0,10705.8093479,100065.04,0.0,0.0,0.0,10705.8093479,10705.8093479
175,175.0,13496.225427,100065.04,28590.0,28590.0,0.0,-15093.774573,-15093.774573
176,176.0,11463.9406625,100065.04,0.0,0.0,0.0,11463.9406625,11463.9406625
177,177.0,13496.225427,100065.04,0.0,0.0,0.0,13496.225427,13496.225427
178,178.0,13111.5413033,100065.04,0.0,0.0,0.0,13111.5413033,13111.5413033
179,179.0,12652.4672248,100065.04,22927.881325,22927.881325,0.0,-10275.4141002,-10275.4141002
180,180.0,11463.9406625,100065.04,21411.6186959,21411.6186959,0.0,-9947.67803338,-9947.67803338
181,181.0,12652.4672248,100065.04,0.0,0.0,0.0,12652.4672248,12652.4672248
182,182.0,13496.225427,100065.04,0.0,0.0,0.0,13496.225427,13496.225427
183,183.0,13496.225427,100065.04,0.0,0.0,0.0,13496.225427,13496.225427
184,184.0,11463.9406625,100065.04,0.0,0.0,0.0,11463.9406625,11463.9406625
185,185.0,13111.5413033,100065.04,0.0,0.0,0.0,13111.5413033,13111.5413033
186,186.0,14295.0,100065.04,0.0,0.0,0.0,14295.0,14295.0
187,187.0,14295.0,100065.04,0.0,0.0,0.0,14295.0,14295.0
188,188.0,6487.16981485,100065.04,2648.31589716,2648.31589716,0.0,3838.85391769,3838.85391769
189,189.0,5210.84547645,100065.04,8820.18498543,10290.2158163,0.0,-3609.33950899,-5079.37033989
190,190.0,6487.16981485,100065.04,19164.7869412,14905.9453987,0.0,-12677.6171264,-8418.77558387
191,191.0,10705.8093479,100065.04,29474.6280877,22924.7107349,0.0,-18768.8187398,-12218.901387
192,192.0,9824.87602925,100065.04,22477.3432541,19667.6753473,0.0,-12652.4672248,-9842.79931805
193,193.0,8820.18498543,100065.04,0.0,0.0,0.0,8820.18498543,8820.18498543
194,194.0,13807.4058686,100065.04,25271.3465311,25271.3465311,0.0,-11463.9406625,-11463.9406625
195,195.0,10705.8093479,100065.04,0.0,0.0,0.0,10705.8093479,10705.8093479
196,196.0,14295.0,100065.04,25000.8093479,29167.6109059,0.0,-10705.8093479,-14872.6109059
197,197.0,14295.0,100065.04,0.0,0.0,0.0,14295.0,14295.0
198,198.0,13807.4058686,100065.04,41598.6312956,32354.4910077,0.0,-27791.225427,-18547.0851391
199,199.0,13807.4058686,100065.04,11463.9406625,13374.5974396,0.0,2343.4652061,432.808429016
200,200.0,14295.0,100065.04,26148.6926518,30506.8080938,0.0,-11853.6926518,-16211.8080938
201,201.0,10705.8093479,100065.04,0.0,0.0,0.0,10705.8093479,10705.8093479
202,202.0,7700.8462787,100065.04,16521.0312641,23129.4437698,0.0,-8820.18498543,-15428.5974911
203,203.0,14295.0,100065.04,25758.9406625,30052.0974396,0.0,-11463.9406625,-15757.0974396
204,204.0,11463.9406625,100065.04,22169.7500105,25864.7083455,0.0,-10705.8093479,-14400.767683
205,205.0,12652.4672248,100065.04,14295.0,16677.5,0.0,-1642.53277519,-4025.03277519
206,206.0,11463.9406625,100065.04,6487.16981485,7568.36478399,0.0,4976.77084767,3895.57587852
207,207.0,8820.18498543,100065.04,0.0,0.0,0.0,8820.18498543,8820.18498543
208,208.0,12652.4672248,100065.04,8820.18498543,10290.2158163,0.0,3832.28223937,2362.25140847
209,209.0,10705.8093479,100065.04,7700.8462787,8984.32065848,0.0,3004.96306925,1721.48868947
210,210.0,13496.225427,100065.04,9824.87602925,11462.3553675,0.0,3671.34939776,2033.87005955
211,211.0,13807.4058686,100065.04,13496.225427,18894.7155978,0.0,311.180441613,-5087.30972919
212,212.0,14295.0,100065.04,13111.5413033,15296.7981872,0.0,1183.45869666,-1001.79818723
213,213.0,13496.225427,100065.04,13111.5413033,15296.7981872,0.0,384.684123668,-1800.57276022
214,214.0,14295.0,100065.04,0.0,0.0,0.0,14295.0,14295.0
215,215.0,13807.4058686,100065.04,14295.0,16677.5,0.0,-487.594131382,-2870.09413138
216,216.0,13807.4058686,100065.04,24575.4819659,34405.6747522,0.0,-10768.0760972,-20598.2688836
217,217.0,14295.0,100065.04,28590.0,25016.25,0.0,-14295.0,-10721.25
218,218.0,13807.4058686,100065.04,28102.4058686,32786.1401801,0.0,-14295.0,-18978.7343114
219,219.0,14295.0,100065.04,0.0,0.0,0.0,14295.0,14295.0
220,220.0,13807.4058686,100065.04,0.0,0.0,0.0,13807.4058686,13807.4058686
221,221.0,14295.0,100065.04,0.0,0.0,0.0,14295.0,14295.0
222,222.0,14295.0,100065.04,28590.0,33355.0,0.0,-14295.0,-19060.0
223,223.0,12652.4672248,100065.04,22477.3432541,22477.3432541,0.0,-9824.87602925,-9824.87602925
224,224.0,14295.0,100065.04,27791.225427,32423.0963315,0.0,-13496.225427,-18128.0963315
225,225.0,14295.0,100065.04,42885.0,42885.0,0.0,-28590.0,-28590.0
226,226.0,14295.0,100065.04,0.0,0.0,0.0,14295.0,14295.0
227,227.0,14295.0,100065.04,13496.225427,15745.5963315,0.0,798.774572995,-1450.59633151
228,228.0,14295.0,100065.04,28590.0,33355.0,0.0,-14295.0,-19060.0
229,229.0,14295.0,100065.04,27614.8117372,27614.8117372,0.0,-13319.8117372,-13319.8117372
230,230.0,14295.0,100065.04,14295.0,16677.5,0.0,0.0,-2382.5
231,231.0,14295.0,100065.04,28590.0,33355.0,0.0,-14295.0,-19060.0
232,232.0,14295.0,100065.04,28590.0,33355.0,0.0,-14295.0,-19060.0
233,233.0,14295.0,100065.04,0.0,0.0,0.0,14295.0,14295.0
234,234.0,13807.4058686,100065.04,24575.4819659,28671.3956268,0.0,-10768.0760972,-14863.9897582
235,235.0,14295.0,100065.04,27406.5413033,31974.2981872,0.0,-13111.5413033,-17679.2981872
236,236.0,14295.0,100065.04,0.0,0.0,0.0,14295.0,14295.0
237,237.0,9824.87602925,100065.04,11463.9406625,16049.5169275,0.0,-1639.06463327,-6224.64089827
238,238.0,13496.225427,100065.04,0.0,0.0,0.0,13496.225427,13496.225427
239,239.0,14295.0,100065.04,26148.6926518,26148.6926518,0.0,-11853.6926518,-11853.6926518
240,240.0,14295.0,100065.04,28590.0,28590.0,0.0,-14295.0,-14295.0
241,241.0,14295.0,100065.04,14295.0,16677.5,0.0,0.0,-2382.5
242,242.0,14295.0,100065.04,28590.0,22236.6666667,0.0,-14295.0,-7941.66666667
243,243.0,13496.225427,100065.04,0.0,0.0,0.0,13496.225427,13496.225427
244,244.0,14295.0,100065.04,0.0,0.0,0.0,14295.0,14295.0
245,245.0,14295.0,100065.04,28590.0,25016.25,0.0,-14295.0,-10721.25
246,246.0,14295.0,100065.04,28590.0,33355.0,0.0,-14295.0,-19060.0
247,247.0,14295.0,100065.04,0.0,0.0,0.0,14295.0,14295.0
248,248.0,13807.4058686,100065.04,14295.0,16677.5,0.0,-487.594131382,-2870.09413138
249,249.0,14295.0,100065.04,13496.225427,15745.5963315,0.0,798.774572995,-1450.59633151
250,250.0,13111.5413033,100065.04,0.0,0.0,0.0,13111.5413033,13111.5413033
251,251.0,14295.0,100065.04,14295.0,16677.5,0.0,0.0,-2382.5
252,252.0,14295.0,100065.04,0.0,0.0,0.0,14295.0,14295.0
253,253.0,13496.225427,100065.04,0.0,0.0,0.0,13496.225427,13496.225427
254,254.0,13807.4058686,100065.04,39571.4143968,46166.6501296,0.0,-25764.0085281,-32359.2442609
255,255.0,12652.4672248,100065.04,14295.0,20013.0,0.0,-1642.53277519,-7360.53277519
256,256.0,14295.0,100065.04,14295.0,20013.0,0.0,0.0,-5718.0
257,257.0,14295.0,100065.04,14295.0,20013.0,0.0,0.0,-5718.0
258,258.0,14295.0,100065.04,0.0,0.0,0.0,14295.0,14295.0
259,259.0,13807.4058686,100065.04,28590.0,25016.25,0.0,-14782.5941314,-11208.8441314
260,260.0,14295.0,100065.04,14295.0,16677.5,0.0,0.0,-2382.5
261,261.0,14295.0,100065.04,28102.4058686,32786.1401801,0.0,-13807.4058686,-18491.1401801
262,262.0,10705.8093479,100065.04,21288.8166918,21288.8166918,0.0,-10583.0073438,-10583.0073438
263,263.0,6487.16981485,100065.04,14188.0160935,14188.0160935,0.0,-7700.8462787,-7700.8462787
264,264.0,14295.0,100065.04,0.0,0.0,0.0,14295.0,14295.0
265,265.0,14295.0,100065.04,0.0,0.0,0.0,14295.0,14295.0
266,266.0,14295.0,100065.04,0.0,0.0,0.0,14295.0,14295.0
267,267.0,13807.4058686,100065.04,0.0,0.0,0.0,13807.4058686,13807.4058686
268,268.0,11463.9406625,100065.04,10349.1621759,10349.1621759,0.0,1114.77848666,1114.77848666
269,269.0,14295.0,100065.04,28590.0,40026.0,0.0,-14295.0,-25731.0
270,270.0,13807.4058686,100065.04,0.0,0.0,0.0,13807.4058686,13807.4058686
271,271.0,12652.4672248,100065.04,25764.0085281,25764.0085281,0.0,-13111.5413033,-13111.5413033
272,272.0,14295.0,100065.04,26223.0826067,36712.3156493,0.0,-11928.0826067,-22417.3156493
273,273.0,14295.0,100065.04,0.0,0.0,0.0,14295.0,14295.0
274,274.0,12652.4672248,100065.04,23358.2765728,27251.3226682,0.0,-10705.8093479,-14598.8554434
275,275.0,14295.0,100065.04,14295.0,16677.5,0.0,0.0,-2382.5
276,276.0,10705.8093479,100065.04,31994.6260397,31994.6260397,0.0,-21288.8166918,-21288.8166918
277,277.0,9824.87602925,100065.04,20530.6853772,23952.4662734,0.0,-10705.8093479,-14127.5902441
278,278.0,8820.18498543,100065.04,0.0,0.0,0.0,8820.18498543,8820.18498543
279,279.0,2648.31589716,100065.04,0.0,0.0,0.0,2648.31589716,2648.31589716
280,280.0,11463.9406625,100065.04,0.0,0.0,0.0,11463.9406625,11463.9406625
281,281.0,14295.0,100065.04,0.0,0.0,0.0,14295.0,14295.0
282,282.0,13807.4058686,100065.04,25764.0085281,22543.5074621,0.0,-11956.6026595,-8736.10159351
283,283.0,14295.0,100065.04,14295.0,16677.5,0.0,0.0,-2382.5
284,284.0,14295.0,100065.04,28590.0,33355.0,0.0,-14295.0,-19060.0
285,285.0,2648.31589716,100065.04,0.0,0.0,0.0,2648.31589716,2648.31589716
286,286.0,14295.0,100065.04,26223.0826067,26223.0826067,0.0,-11928.0826067,-11928.0826067
287,287.0,13807.4058686,100065.04,12652.4672248,12652.4672248,0.0,1154.93864381,1154.93864381
288,288.0,14295.0,100065.04,28590.0,33355.0,0.0,-14295.0,-19060.0
289,289.0,14295.0,100065.04,14295.0,14295.0,0.0,0.0,0.0
290,290.0,14295.0,100065.04,0.0,0.0,0.0,14295.0,14295.0
291,291.0,14295.0,100065.04,13111.5413033,15296.7981872,0.0,1183.45869666,-1001.79818723
292,292.0,14295.0,100065.04,0.0,0.0,0.0,14295.0,14295.0
293,293.0,12652.4672248,100065.04,11463.9406625,16049.5169275,0.0,1188.52656229,-3397.04970272
294,294.0,14295.0,100065.04,42086.225427,32733.7308877,0.0,-27791.225427,-18438.7308877
295,295.0,14295.0,100065.04,0.0,0.0,0.0,14295.0,14295.0
296,296.0,11463.9406625,100065.04,13111.5413033,18356.1578247,0.0,-1647.60064082,-6892.21716216
297,297.0,14295.0,100065.04,28590.0,33355.0,0.0,-14295.0,-19060.0
298,298.0,14295.0,100065.04,28590.0,28590.0,0.0,-14295.0,-14295.0
299,299.0,14295.0,100065.04,28590.0,40026.0,0.0,-14295.0,-25731.0
300,300.0,14295.0,100065.04,14295.0,20013.0,0.0,0.0,-5718.0
301,301.0,14295.0,100065.04,28590.0,28590.0,0.0,-14295.0,-14295.0
302,302.0,2648.31589716,100065.04,1485.18405496,2079.25767694,0.0,1163.1318422,569.058220221
303,303.0,8820.18498543,100065.04,0.0,0.0,0.0,8820.18498543,8820.18498543
304,304.0,14295.0,100065.04,42885.0,50032.5,0.0,-28590.0,-35737.5
305,305.0,14295.0,100065.04,14295.0,25016.25,0.0,0.0,-10721.25
306,306.0,14295.0,100065.04,14295.0,20013.0,0.0,0.0,-5718.0
307,307.0,14295.0,100065.04,28590.0,25016.25,0.0,-14295.0,-10721.25
308,308.0,14295.0,100065.04,0.0,0.0,0.0,14295.0,14295.0
309,309.0,14295.0,100065.04,14295.0,16677.5,0.0,0.0,-2382.5
310,310.0,14295.0,100065.04,28590.0,33355.0,0.0,-14295.0,-19060.0
311,311.0,11463.9406625,100065.04,24575.4819659,21503.5467201,0.0,-13111.5413033,-10039.6060576
312,312.0,14295.0,100065.04,27791.225427,32423.0963315,0.0,-13496.225427,-18128.0963315
313,313.0,14295.0,100065.04,14295.0,16677.5,0.0,0.0,-2382.5
314,314.0,14295.0,100065.04,42885.0,37524.375,0.0,-28590.0,-23229.375
315,315.0,14295.0,100065.04,42885.0,42885.0,0.0,-28590.0,-28590.0
316,316.0,14295.0,100065.04,0.0,0.0,0.0,14295.0,14295.0
317,317.0,1485.18405496,100065.04,0.0,0.0,0.0,1485.18405496,1485.18405496
318,318.0,14295.0,100065.04,0.0,0.0,0.0,14295.0,14295.0
319,319.0,14295.0,100065.04,28590.0,28590.0,0.0,-14295.0,-14295.0
320,320.0,10705.8093479,100065.04,11463.9406625,13374.5974396,0.0,-758.131314566,-2668.78809165
321,321.0,14295.0,100065.04,26607.7667303,26607.7667303,0.0,-12312.7667303,-12312.7667303
322,322.0,14295.0,100065.04,0.0,0.0,0.0,14295.0,14295.0
323,323.0,13807.4058686,100065.04,28590.0,40026.0,0.0,-14782.5941314,-26218.5941314
324,324.0,14295.0,100065.04,12652.4672248,14761.2117623,0.0,1642.53277519,-466.211762273
325,325.0,11463.9406625,100065.04,24202.034775,28235.7072374,0.0,-12738.0941124,-16771.7665749
326,326.0,11463.9406625,100065.04,14295.0,25016.25,0.0,-2831.05933748,-13552.3093375
327,327.0,12652.4672248,100065.04,0.0,0.0,0.0,12652.4672248,12652.4672248
328,328.0,8820.18498543,100065.04,2648.31589716,3089.70188002,0.0,6171.86908827,5730.48310541
329,329.0,14295.0,100065.04,28590.0,33355.0,0.0,-14295.0,-19060.0
330,330.0,8820.18498543,100065.04,13807.4058686,13807.4058686,0.0,-4987.22088318,-4987.22088318
331,331.0,14295.0,100065.04,26459.8730934,23152.3889567,0.0,-12164.8730934,-8857.38895675
332,332.0,13111.5413033,100065.04,40518.0826067,56725.3156493,0.0,-27406.5413033,-43613.774346
333,333.0,9824.87602925,100065.04,0.0,0.0,0.0,9824.87602925,9824.87602925
334,334.0,8820.18498543,100065.04,10349.1621759,10349.1621759,0.0,-1528.97719042,-1528.97719042
335,335.0,6487.16981485,100065.04,0.0,0.0,0.0,6487.16981485,6487.16981485
336,336.0,2648.31589716,100065.04,0.0,0.0,0.0,2648.31589716,2648.31589716
337,337.0,12652.4672248,100065.04,13807.4058686,13807.4058686,0.0,-1154.93864381,-1154.93864381
338,338.0,14295.0,100065.04,0.0,0.0,0.0,14295.0,14295.0
339,339.0,0.0,100065.04,0.0,0.0,0.0,0.0,0.0
340,340.0,8820.18498543,100065.04,21931.7262888,19190.2605027,0.0,-13111.5413033,-10370.0755172
341,341.0,14295.0,100065.04,28590.0,33355.0,0.0,-14295.0,-19060.0
342,342.0,0.0,100065.04,0.0,0.0,0.0,0.0,0.0
343,343.0,7700.8462787,100065.04,24116.4078873,33762.9710422,0.0,-16415.5616086,-26062.1247636
344,344.0,7700.8462787,100065.04,0.0,0.0,0.0,7700.8462787,7700.8462787
345,345.0,13807.4058686,100065.04,0.0,0.0,0.0,13807.4058686,13807.4058686
346,346.0,10705.8093479,100065.04,19525.9943334,19525.9943334,0.0,-8820.18498543,-8820.18498543
347,347.0,14295.0,100065.04,0.0,0.0,0.0,14295.0,14295.0
348,348.0,13807.4058686,100065.04,14295.0,20013.0,0.0,-487.594131382,-6205.59413138
349,349.0,13111.5413033,100065.04,9824.87602925,13754.8264409,0.0,3286.66527409,-643.28513761
350,350.0,6487.16981485,100065.04,18707.0709035,16368.6870405,0.0,-12219.9010886,-9881.51722567
351,351.0,11463.9406625,100065.04,0.0,0.0,0.0,11463.9406625,11463.9406625
352,352.0,10705.8093479,100065.04,0.0,0.0,0.0,10705.8093479,10705.8093479
353,353.0,13807.4058686,100065.04,27791.225427,24317.3222486,0.0,-13983.8195584,-10509.91638
354,354.0,14295.0,100065.04,0.0,0.0,0.0,14295.0,14295.0
355,355.0,14295.0,100065.04,28590.0,25016.25,0.0,-14295.0,-10721.25
356,356.0,14295.0,100065.04,0.0,0.0,0.0,14295.0,14295.0
357,357.0,14295.0,100065.04,0.0,0.0,0.0,14295.0,14295.0
358,358.0,13111.5413033,100065.04,9824.87602925,11462.3553675,0.0,3286.66527409,1649.18593588
359,359.0,13111.5413033,100065.04,11463.9406625,13374.5974396,0.0,1647.60064082,-263.056136265
360,360.0,13111.5413033,100065.04,25758.9406625,25758.9406625,0.0,-12647.3993592,-12647.3993592
361,361.0,11463.9406625,100065.04,0.0,0.0,0.0,11463.9406625,11463.9406625
362,362.0,14295.0,100065.04,42885.0,33355.0,0.0,-28590.0,-19060.0
363,363.0,14295.0,100065.04,28590.0,33355.0,0.0,-14295.0,-19060.0
364,364.0,13111.5413033,100065.04,0.0,0.0,0.0,13111.5413033,13111.5413033
365,365.0,13807.4058686,100065.04,28590.0,33355.0,0.0,-14782.5941314,-19547.5941314
366,366.0,13111.5413033,100065.04,0.0,0.0,0.0,13111.5413033,13111.5413033
367,367.0,11463.9406625,100065.04,26947.4672248,23579.0338217,0.0,-15483.5265623,-12115.0931592
368,368.0,11463.9406625,100065.04,8820.18498543,10290.2158163,0.0,2643.75567708,1173.72484618
369,369.0,1485.18405496,100065.04,14112.2565597,14112.2565597,0.0,-12627.0725047,-12627.0725047
370,370.0,6487.16981485,100065.04,0.0,0.0,0.0,6487.16981485,6487.16981485
371,371.0,10705.8093479,100065.04,11463.9406625,13374.5974396,0.0,-758.131314566,-2668.78809165
372,372.0,13807.4058686,100065.04,14295.0,25016.25,0.0,-487.594131382,-11208.8441314
373,373.0,13807.4058686,100065.04,0.0,0.0,0.0,13807.4058686,13807.4058686
374,374.0,8820.18498543,100065.04,0.0,0.0,0.0,8820.18498543,8820.18498543
375,375.0,1485.18405496,100065.04,0.0,0.0,0.0,1485.18405496,1485.18405496
376,376.0,8820.18498543,100065.04,0.0,0.0,0.0,8820.18498543,8820.18498543
377,377.0,7700.8462787,100065.04,0.0,0.0,0.0,7700.8462787,7700.8462787
378,378.0,11463.9406625,100065.04,13111.5413033,13111.5413033,0.0,-1647.60064082,-1647.60064082
379,379.0,0.0,100065.04,0.0,0.0,0.0,0.0,0.0
380,380.0,13111.5413033,100065.04,0.0,0.0,0.0,13111.5413033,13111.5413033
381,381.0,2648.31589716,100065.04,10705.8093479,12490.1109059,0.0,-8057.49345079,-9841.79500878
382,382.0,291.565886949,100065.04,7700.8462787,7700.8462787,0.0,-7409.28039175,-7409.28039175
383,383.0,0.0,100065.04,0.0,0.0,0.0,0.0,0.0
384,384.0,9824.87602925,100065.04,0.0,0.0,0.0,9824.87602925,9824.87602925
385,385.0,7700.8462787,100065.04,6487.16981485,9082.03774079,0.0,1213.67646385,-1381.19146209
386,386.0,0.0,100065.04,9824.87602925,11462.3553675,0.0,-9824.87602925,-11462.3553675
387,387.0,10705.8093479,100065.04,9824.87602925,9824.87602925,0.0,880.933318701,880.933318701
388,388.0,0.0,100065.04,0.0,0.0,0.0,0.0,0.0
389,389.0,0.0,100065.04,0.0,0.0,0.0,0.0,0.0
390,390.0,13807.4058686,100065.04,0.0,0.0,0.0,13807.4058686,13807.4058686
391,391.0,7700.8462787,100065.04,12652.4672248,14761.2117623,0.0,-4951.62094611,-7060.36548358
392,392.0,14295.0,100065.04,0.0,0.0,0.0,14295.0,14295.0
393,393.0,11463.9406625,100065.04,0.0,0.0,0.0,11463.9406625,11463.9406625
394,394.0,8820.18498543,100065.04,14188.0160935,16552.6854425,0.0,-5367.83110811,-7732.50045704
395,395.0,5210.84547645,100065.04,0.0,0.0,0.0,5210.84547645,5210.84547645
396,396.0,7700.8462787,100065.04,0.0,0.0,0.0,7700.8462787,7700.8462787
397,397.0,1485.18405496,100065.04,10349.1621759,10349.1621759,0.0,-8863.9781209,-8863.9781209
398,398.0,13807.4058686,100065.04,13111.5413033,22945.1972808,0.0,695.864565281,-9137.79141222
399,399.0,8820.18498543,100065.04,12652.4672248,17713.4541147,0.0,-3832.28223937,-8893.26912929
400,400.0,6487.16981485,100065.04,10705.8093479,12490.1109059,0.0,-4218.6395331,-6002.94109109
401,401.0,5210.84547645,100065.04,13111.5413033,22945.1972808,0.0,-7900.69582689,-17734.3518044
402,402.0,7700.8462787,100065.04,14295.0,16677.5,0.0,-6594.1537213,-8976.6537213
403,403.0,14295.0,100065.04,14295.0,16677.5,0.0,0.0,-2382.5
404,404.0,9824.87602925,100065.04,21288.8166918,21288.8166918,0.0,-11463.9406625,-11463.9406625
405,405.0,12652.4672248,100065.04,0.0,0.0,0.0,12652.4672248,12652.4672248
406,406.0,13111.5413033,100065.04,0.0,0.0,0.0,13111.5413033,13111.5413033
407,407.0,11463.9406625,100065.04,0.0,0.0,0.0,11463.9406625,11463.9406625
408,408.0,9824.87602925,100065.04,0.0,0.0,0.0,9824.87602925,9824.87602925
409,409.0,8820.18498543,100065.04,0.0,0.0,0.0,8820.18498543,8820.18498543
410,410.0,13496.225427,100065.04,22477.3432541,19667.6753473,0.0,-8981.11782705,-6171.44992029
411,411.0,11463.9406625,100065.04,12652.4672248,17713.4541147,0.0,-1188.52656229,-6249.51345221
412,412.0,10705.8093479,100065.04,22936.4173326,22936.4173326,0.0,-12230.6079846,-12230.6079846
413,413.0,11463.9406625,100065.04,13111.5413033,15296.7981872,0.0,-1647.60064082,-3832.85752471
414,414.0,14295.0,100065.04,27614.8117372,32217.2803601,0.0,-13319.8117372,-17922.2803601
415,415.0,14295.0,100065.04,28590.0,33355.0,0.0,-14295.0,-19060.0
416,416.0,10705.8093479,100065.04,0.0,0.0,0.0,10705.8093479,10705.8093479
417,417.0,5210.84547645,100065.04,12190.9934029,14222.8256367,0.0,-6980.14792646,-9011.98016028
418,418.0,10705.8093479,100065.04,0.0,0.0,0.0,10705.8093479,10705.8093479
419,419.0,5210.84547645,100065.04,14295.0,16677.5,0.0,-9084.15452355,-11466.6545236
420,420.0,2648.31589716,100065.04,2648.31589716,3707.64225603,0.0,0.0,-1059.32635886
421,421.0,2648.31589716,100065.04,11463.9406625,13374.5974396,0.0,-8815.62476535,-10726.2815424
422,422.0,7700.8462787,100065.04,2648.31589716,3707.64225603,0.0,5052.53038153,3993.20402267
423,423.0,12652.4672248,100065.04,0.0,0.0,0.0,12652.4672248,12652.4672248
424,424.0,1485.18405496,100065.04,291.565886949,291.565886949,0.0,1193.61816801,1193.61816801
425,425.0,14295.0,100065.04,14295.0,14295.0,0.0,0.0,0.0
426,426.0,9824.87602925,100065.04,8820.18498543,12348.2589796,0.0,1004.69104381,-2523.38295036
427,427.0,13807.4058686,100065.04,26947.4672248,31438.7117623,0.0,-13140.0613562,-17631.3058937
428,428.0,14295.0,100065.04,0.0,0.0,0.0,14295.0,14295.0
429,429.0,14295.0,100065.04,0.0,0.0,0.0,14295.0,14295.0
430,430.0,14295.0,100065.04,26947.4672248,26947.4672248,0.0,-12652.4672248,-12652.4672248
431,431.0,13807.4058686,100065.04,13807.4058686,16108.6401801,0.0,0.0,-2301.23431144
432,432.0,14295.0,100065.04,0.0,0.0,0.0,14295.0,14295.0
433,433.0,14295.0,100065.04,0.0,0.0,0.0,14295.0,14295.0
434,434.0,14295.0,100065.04,27791.225427,38907.7155978,0.0,-13496.225427,-24612.7155978
435,435.0,14295.0,100065.04,28590.0,40026.0,0.0,-14295.0,-25731.0
436,436.0,14295.0,100065.04,28590.0,33355.0,0.0,-14295.0,-19060.0
437,437.0,14295.0,100065.04,0.0,0.0,0.0,14295.0,14295.0
438,438.0,13111.5413033,100065.04,25764.0085281,25764.0085281,0.0,-12652.4672248,-12652.4672248
439,439.0,11463.9406625,100065.04,25764.0085281,30058.0099495,0.0,-14300.0678656,-18594.069287
440,440.0,2648.31589716,100065.04,7859.16137361,9169.02160254,0.0,-5210.84547645,-6520.70570538
441,441.0,13496.225427,100065.04,12652.4672248,14761.2117623,0.0,843.758202199,-1264.98633527
442,442.0,14295.0,100065.04,0.0,0.0,0.0,14295.0,14295.0
443,443.0,14295.0,100065.04,0.0,0.0,0.0,14295.0,14295.0
444,444.0,14295.0,100065.04,0.0,0.0,0.0,14295.0,14295.0
445,445.0,13111.5413033,100065.04,0.0,0.0,0.0,13111.5413033,13111.5413033
446,446.0,13496.225427,100065.04,29602.3548003,29602.3548003,0.0,-16106.1293733,-16106.1293733
447,447.0,13807.4058686,100065.04,27791.225427,32423.0963315,0.0,-13983.8195584,-18615.6904629
448,448.0,14295.0,100065.04,27406.5413033,38369.1578247,0.0,-13111.5413033,-24074.1578247
449,449.0,13807.4058686,100065.04,27791.225427,27791.225427,0.0,-13983.8195584,-13983.8195584
450,450.0,14295.0,100065.04,27791.225427,24317.3222486,0.0,-13496.225427,-10022.3222486
451,451.0,14295.0,100065.04,0.0,0.0,0.0,14295.0,14295.0
452,452.0,13111.5413033,100065.04,0.0,0.0,0.0,13111.5413033,13111.5413033
453,453.0,13807.4058686,100065.04,13807.4058686,19330.3682161,0.0,0.0,-5522.96234745
454,454.0,14295.0,100065.04,0.0,0.0,0.0,14295.0,14295.0
455,455.0,14295.0,100065.04,0.0,0.0,0.0,14295.0,14295.0
456,456.0,13807.4058686,100065.04,0.0,0.0,0.0,13807.4058686,13807.4058686
457,457.0,14295.0,100065.04,28590.0,50032.5,0.0,-14295.0,-35737.5
458,458.0,13807.4058686,100065.04,14295.0,16677.5,0.0,-487.594131382,-2870.09413138
459,459.0,13807.4058686,100065.04,0.0,0.0,0.0,13807.4058686,13807.4058686
460,460.0,14295.0,100065.04,42885.0,37524.375,0.0,-28590.0,-23229.375
461,461.0,14295.0,100065.04,14295.0,25016.25,0.0,0.0,-10721.25
462,462.0,14295.0,100065.04,0.0,0.0,0.0,14295.0,14295.0
463,463.0,14295.0,100065.04,28102.4058686,32786.1401801,0.0,-13807.4058686,-18491.1401801
464,464.0,13111.5413033,100065.04,13807.4058686,19330.3682161,0.0,-695.864565281,-6218.82691273
465,465.0,13807.4058686,100065.04,0.0,0.0,0.0,13807.4058686,13807.4058686
466,466.0,14295.0,100065.04,28590.0,50032.5,0.0,-14295.0,-35737.5
467,467.0,14295.0,100065.04,14295.0,14295.0,0.0,0.0,0.0
468,468.0,13807.4058686,100065.04,13807.4058686,19330.3682161,0.0,0.0,-5522.96234745
469,469.0,11463.9406625,100065.04,13111.5413033,13111.5413033,0.0,-1647.60064082,-1647.60064082
470,470.0,8820.18498543,100065.04,2648.31589716,2648.31589716,0.0,6171.86908827,6171.86908827
471,471.0,2648.31589716,100065.04,7700.8462787,8984.32065848,0.0,-5052.53038153,-6336.00476132
472,472.0,12652.4672248,100065.04,0.0,0.0,0.0,12652.4672248,12652.4672248
473,473.0,0.0,100065.04,0.0,0.0,0.0,0.0,0.0
474,474.0,10705.8093479,100065.04,0.0,0.0,0.0,10705.8093479,10705.8093479
475,475.0,14295.0,100065.04,0.0,0.0,0.0,14295.0,14295.0
476,476.0,14295.0,100065.04,28590.0,33355.0,0.0,-14295.0,-19060.0
477,477.0,14295.0,100065.04,42397.4058686,37097.730135,0.0,-28102.4058686,-22802.730135
478,478.0,14295.0,100065.04,14295.0,16677.5,0.0,0.0,-2382.5
479,479.0,14295.0,100065.04,14295.0,20013.0,0.0,0.0,-5718.0
480,480.0,14295.0,100065.04,0.0,0.0,0.0,14295.0,14295.0
481,481.0,14295.0,100065.04,28590.0,25016.25,0.0,-14295.0,-10721.25
482,482.0,14295.0,100065.04,28590.0,40026.0,0.0,-14295.0,-25731.0
483,483.0,14295.0,100065.04,0.0,0.0,0.0,14295.0,14295.0
484,484.0,14295.0,100065.04,14295.0,25016.25,0.0,0.0,-10721.25
485,485.0,13111.5413033,100065.04,0.0,0.0,0.0,13111.5413033,13111.5413033
486,486.0,14295.0,100065.04,14295.0,16677.5,0.0,0.0,-2382.5
487,487.0,13807.4058686,100065.04,0.0,0.0,0.0,13807.4058686,13807.4058686
488,488.0,14295.0,100065.04,27303.6312956,47781.3547673,0.0,-13008.6312956,-33486.3547673
489,489.0,14295.0,100065.04,0.0,0.0,0.0,14295.0,14295.0
490,490.0,14295.0,100065.04,0.0,0.0,0.0,14295.0,14295.0
491,491.0,13111.5413033,100065.04,13111.5413033,18356.1578247,0.0,0.0,-5244.61652133
492,492.0,14295.0,100065.04,14295.0,25016.25,0.0,0.0,-10721.25
493,493.0,14295.0,100065.04,0.0,0.0,0.0,14295.0,14295.0
494,494.0,14295.0,100065.04,14295.0,14295.0,0.0,0.0,0.0
495,495.0,14295.0,100065.04,13807.4058686,16108.6401801,0.0,487.594131382,-1813.64018005
496,496.0,13807.4058686,100065.04,13807.4058686,16108.6401801,0.0,0.0,-2301.23431144
497,497.0,14295.0,100065.04,0.0,0.0,0.0,14295.0,14295.0
498,498.0,13496.225427,100065.04,14295.0,20013.0,0.0,-798.774572995,-6516.774573
499,499.0,14295.0,100065.04,28590.0,40026.0,0.0,-14295.0,-25731.0
500,500.0,14295.0,100065.04,0.0,0.0,0.0,14295.0,14295.0
501,501.0,13496.225427,100065.04,0.0,0.0,0.0,13496.225427,13496.225427
502,502.0,14295.0,100065.04,0.0,0.0,0.0,14295.0,14295.0
503,503.0,14295.0,100065.04,28590.0,33355.0,0.0,-14295.0,-19060.0
504,504.0,14295.0,100065.04,28590.0,25016.25,0.0,-14295.0,-10721.25
505,505.0,14295.0,100065.04,28102.4058686,28102.4058686,0.0,-13807.4058686,-13807.4058686
506,506.0,14295.0,100065.04,28590.0,28590.0,0.0,-14295.0,-14295.0
507,507.0,13111.5413033,100065.04,0.0,0.0,0.0,13111.5413033,13111.5413033
508,508.0,14295.0,100065.04,0.0,0.0,0.0,14295.0,14295.0
509,509.0,14295.0,100065.04,13807.4058686,24162.9602701,0.0,487.594131382,-9867.96027008
510,510.0,13807.4058686,100065.04,28590.0,33355.0,0.0,-14782.5941314,-19547.5941314
511,511.0,14295.0,100065.04,0.0,0.0,0.0,14295.0,14295.0
512,512.0,14295.0,100065.04,0.0,0.0,0.0,14295.0,14295.0
513,513.0,14295.0,100065.04,0.0,0.0,0.0,14295.0,14295.0
514,514.0,14295.0,100065.04,0.0,0.0,0.0,14295.0,14295.0
515,515.0,14295.0,100065.04,0.0,0.0,0.0,14295.0,14295.0
516,516.0,14295.0,100065.04,28590.0,33355.0,0.0,-14295.0,-19060.0
517,517.0,14295.0,100065.04,0.0,0.0,0.0,14295.0,14295.0
518,518.0,14295.0,100065.04,0.0,0.0,0.0,14295.0,14295.0
519,519.0,14295.0,100065.04,28590.0,33355.0,0.0,-14295.0,-19060.0
520,520.0,14295.0,100065.04,14295.0,16677.5,0.0,0.0,-2382.5
521,521.0,14295.0,100065.04,28590.0,33355.0,0.0,-14295.0,-19060.0
522,522.0,14295.0,100065.04,27303.6312956,23890.6773837,0.0,-13008.6312956,-9595.67738367
523,523.0,14295.0,100065.04,0.0,0.0,0.0,14295.0,14295.0
524,524.0,14295.0,100065.04,0.0,0.0,0.0,14295.0,14295.0
525,525.0,14295.0,100065.04,0.0,0.0,0.0,14295.0,14295.0
526,526.0,14295.0,100065.04,0.0,0.0,0.0,14295.0,14295.0
527,527.0,14295.0,100065.04,14295.0,20013.0,0.0,0.0,-5718.0
528,528.0,13496.225427,100065.04,13496.225427,15745.5963315,0.0,0.0,-2249.3709045
529,529.0,14295.0,100065.04,14295.0,16677.5,0.0,0.0,-2382.5
530,530.0,14295.0,100065.04,14295.0,14295.0,0.0,0.0,0.0
531,531.0,14295.0,100065.04,14295.0,20013.0,0.0,0.0,-5718.0
532,532.0,14295.0,100065.04,14295.0,14295.0,0.0,0.0,0.0
533,533.0,14295.0,100065.04,0.0,0.0,0.0,14295.0,14295.0
534,534.0,14295.0,100065.04,0.0,0.0,0.0,14295.0,14295.0
535,535.0,14295.0,100065.04,0.0,0.0,0.0,14295.0,14295.0
536,536.0,13807.4058686,100065.04,13807.4058686,12081.480135,0.0,0.0,1725.92573358
537,537.0,14295.0,100065.04,14295.0,16677.5,0.0,0.0,-2382.5
538,538.0,12652.4672248,100065.04,28102.4058686,32786.1401801,0.0,-15449.9386438,-20133.6729552
539,539.0,14295.0,100065.04,28102.4058686,32786.1401801,0.0,-13807.4058686,-18491.1401801
540,540.0,14295.0,100065.04,0.0,0.0,0.0,14295.0,14295.0
541,541.0,11463.9406625,100065.04,14295.0,20013.0,0.0,-2831.05933748,-8549.05933748
542,542.0,14295.0,100065.04,0.0,0.0,0.0,14295.0,14295.0
543,543.0,13496.225427,100065.04,28590.0,33355.0,0.0,-15093.774573,-19858.774573
544,544.0,14295.0,100065.04,0.0,0.0,0.0,14295.0,14295.0
545,545.0,14295.0,100065.04,0.0,0.0,0.0,14295.0,14295.0
546,546.0,14295.0,100065.04,14295.0,16677.5,0.0,0.0,-2382.5
547,547.0,14295.0,100065.04,13496.225427,15745.5963315,0.0,798.774572995,-1450.59633151
548,548.0,14295.0,100065.04,14295.0,14295.0,0.0,0.0,0.0
549,549.0,14295.0,100065.04,0.0,0.0,0.0,14295.0,14295.0
550,550.0,14295.0,100065.04,27406.5413033,27406.5413033,0.0,-13111.5413033,-13111.5413033
551,551.0,14295.0,100065.04,0.0,0.0,0.0,14295.0,14295.0
552,552.0,14295.0,100065.04,14295.0,20013.0,0.0,0.0,-5718.0
553,553.0,14295.0,100065.04,14295.0,16677.5,0.0,0.0,-2382.5
554,554.0,14295.0,100065.04,13807.4058686,13807.4058686,0.0,487.594131382,487.594131382
555,555.0,14295.0,100065.04,14295.0,16677.5,0.0,0.0,-2382.5
556,556.0,13496.225427,100065.04,0.0,0.0,0.0,13496.225427,13496.225427
557,557.0,13807.4058686,100065.04,13807.4058686,16108.6401801,0.0,0.0,-2301.23431144
558,558.0,14295.0,100065.04,13807.4058686,16108.6401801,0.0,487.594131382,-1813.64018005
559,559.0,14295.0,100065.04,0.0,0.0,0.0,14295.0,14295.0
560,560.0,13807.4058686,100065.04,0.0,0.0,0.0,13807.4058686,13807.4058686
561,561.0,14295.0,100065.04,0.0,0.0,0.0,14295.0,14295.0
562,562.0,14295.0,100065.04,28590.0,33355.0,0.0,-14295.0,-19060.0
563,563.0,13807.4058686,100065.04,0.0,0.0,0.0,13807.4058686,13807.4058686
564,564.0,13807.4058686,100065.04,28590.0,28590.0,0.0,-14782.5941314,-14782.5941314
565,565.0,14295.0,100065.04,12652.4672248,17713.4541147,0.0,1642.53277519,-3418.45411473
566,566.0,13807.4058686,100065.04,13807.4058686,13807.4058686,0.0,0.0,0.0
567,567.0,14295.0,100065.04,27406.5413033,21316.1987915,0.0,-13111.5413033,-7021.19879148
568,568.0,14295.0,100065.04,13807.4058686,19330.3682161,0.0,487.594131382,-5035.36821606
569,569.0,14295.0,100065.04,0.0,0.0,0.0,14295.0,14295.0
570,570.0,14295.0,100065.04,28590.0,33355.0,0.0,-14295.0,-19060.0
571,571.0,10705.8093479,100065.04,8820.18498543,12348.2589796,0.0,1885.62436252,-1642.44963166
572,572.0,11463.9406625,100065.04,27303.6312956,23890.6773837,0.0,-15839.6906331,-12426.7367212
573,573.0,14295.0,100065.04,0.0,0.0,0.0,14295.0,14295.0
574,574.0,14295.0,100065.04,28590.0,28590.0,0.0,-14295.0,-14295.0
575,575.0,14295.0,100065.04,42885.0,42885.0,0.0,-28590.0,-28590.0
576,576.0,14295.0,100065.04,28590.0,28590.0,0.0,-14295.0,-14295.0
577,577.0,14295.0,100065.04,28590.0,25016.25,0.0,-14295.0,-10721.25
578,578.0,14295.0,100065.04,0.0,0.0,0.0,14295.0,14295.0
579,579.0,13111.5413033,100065.04,27303.6312956,27303.6312956,0.0,-14192.0899923,-14192.0899923
580,580.0,13496.225427,100065.04,0.0,0.0,0.0,13496.225427,13496.225427
581,581.0,13496.225427,100065.04,0.0,0.0,0.0,13496.225427,13496.225427
582,582.0,14295.0,100065.04,0.0,0.0,0.0,14295.0,14295.0
583,583.0,11463.9406625,100065.04,10705.8093479,10705.8093479,0.0,758.131314566,758.131314566
584,584.0,13807.4058686,100065.04,0.0,0.0,0.0,13807.4058686,13807.4058686
585,585.0,14295.0,100065.04,28590.0,28590.0,0.0,-14295.0,-14295.0
586,586.0,13807.4058686,100065.04,27406.5413033,38369.1578247,0.0,-13599.1354347,-24561.7519561
587,587.0,14295.0,100065.04,14295.0,16677.5,0.0,0.0,-2382.5
588,588.0,14295.0,100065.04,0.0,0.0,0.0,14295.0,14295.0
589,589.0,13807.4058686,100065.04,0.0,0.0,0.0,13807.4058686,13807.4058686
590,590.0,14295.0,100065.04,0.0,0.0,0.0,14295.0,14295.0
591,591.0,14295.0,100065.04,0.0,0.0,0.0,14295.0,14295.0
592,592.0,14295.0,100065.04,28590.0,28590.0,0.0,-14295.0,-14295.0
593,593.0,14295.0,100065.04,14295.0,12508.125,0.0,0.0,1786.875
594,594.0,14295.0,100065.04,14295.0,16677.5,0.0,0.0,-2382.5
595,595.0,14295.0,100065.04,0.0,0.0,0.0,14295.0,14295.0
596,596.0,14295.0,100065.04,0.0,0.0,0.0,14295.0,14295.0
597,597.0,14295.0,100065.04,14295.0,25016.25,0.0,0.0,-10721.25
598,598.0,14295.0,100065.04,28590.0,40026.0,0.0,-14295.0,-25731.0
599,599.0,14295.0,100065.04,27406.5413033,38369.1578247,0.0,-13111.5413033,-24074.1578247
600,600.0,13111.5413033,100065.04,13807.4058686,19330.3682161,0.0,-695.864565281,-6218.82691273
601,601.0,14295.0,100065.04,0.0,0.0,0.0,14295.0,14295.0
602,602.0,12652.4672248,100065.04,0.0,0.0,0.0,12652.4672248,12652.4672248
603,603.0,13111.5413033,100065.04,40726.3530406,40726.3530406,0.0,-27614.8117372,-27614.8117372
604,604.0,14295.0,100065.04,28590.0,33355.0,0.0,-14295.0,-19060.0
605,605.0,14295.0,100065.04,42885.0,37524.375,0.0,-28590.0,-23229.375
606,606.0,13807.4058686,100065.04,27303.6312956,31854.2365116,0.0,-13496.225427,-18046.8306429
607,607.0,14295.0,100065.04,28590.0,33355.0,0.0,-14295.0,-19060.0
608,608.0,14295.0,100065.04,0.0,0.0,0.0,14295.0,14295.0
609,609.0,13807.4058686,100065.04,0.0,0.0,0.0,13807.4058686,13807.4058686
610,610.0,14295.0,100065.04,14295.0,20013.0,0.0,0.0,-5718.0
611,611.0,13496.225427,100065.04,13111.5413033,18356.1578247,0.0,384.684123668,-4859.93239767
612,612.0,14295.0,100065.04,14295.0,14295.0,0.0,0.0,0.0
613,613.0,14295.0,100065.04,28590.0,33355.0,0.0,-14295.0,-19060.0
614,614.0,14295.0,100065.04,0.0,0.0,0.0,14295.0,14295.0
615,615.0,14295.0,100065.04,0.0,0.0,0.0,14295.0,14295.0
616,616.0,13807.4058686,100065.04,14295.0,25016.25,0.0,-487.594131382,-11208.8441314
617,617.0,13807.4058686,100065.04,0.0,0.0,0.0,13807.4058686,13807.4058686
618,618.0,9824.87602925,100065.04,13111.5413033,22945.1972808,0.0,-3286.66527409,-13120.3212516
619,619.0,14295.0,100065.04,28590.0,28590.0,0.0,-14295.0,-14295.0
620,620.0,10705.8093479,100065.04,27791.225427,38907.7155978,0.0,-17085.4160791,-28201.9062499
621,621.0,14295.0,100065.04,14295.0,20013.0,0.0,0.0,-5718.0
622,622.0,13111.5413033,100065.04,13496.225427,15745.5963315,0.0,-384.684123668,-2634.05502817
623,623.0,13111.5413033,100065.04,0.0,0.0,0.0,13111.5413033,13111.5413033
624,624.0,11463.9406625,100065.04,13111.5413033,22945.1972808,0.0,-1647.60064082,-11481.2566183
625,625.0,14295.0,100065.04,0.0,0.0,0.0,14295.0,14295.0
626,626.0,14295.0,100065.04,0.0,0.0,0.0,14295.0,14295.0
627,627.0,9824.87602925,100065.04,13111.5413033,18356.1578247,0.0,-3286.66527409,-8531.28179542
628,628.0,13496.225427,100065.04,0.0,0.0,0.0,13496.225427,13496.225427
629,629.0,14295.0,100065.04,0.0,0.0,0.0,14295.0,14295.0
630,630.0,14295.0,100065.04,0.0,0.0,0.0,14295.0,14295.0
631,631.0,14295.0,100065.04,0.0,0.0,0.0,14295.0,14295.0
632,632.0,8820.18498543,100065.04,15307.3548003,17858.5806003,0.0,-6487.16981485,-9038.3956149
633,633.0,12652.4672248,100065.04,12652.4672248,14761.2117623,0.0,0.0,-2108.74453747
634,634.0,9824.87602925,100065.04,8820.18498543,10290.2158163,0.0,1004.69104381,-465.339787092
635,635.0,10705.8093479,100065.04,22477.3432541,22477.3432541,0.0,-11771.5339061,-11771.5339061
636,636.0,13496.225427,100065.04,14295.0,16677.5,0.0,-798.774572995,-3181.274573
637,637.0,13111.5413033,100065.04,0.0,0.0,0.0,13111.5413033,13111.5413033
638,638.0,13496.225427,100065.04,0.0,0.0,0.0,13496.225427,13496.225427
639,639.0,14295.0,100065.04,28590.0,28590.0,0.0,-14295.0,-14295.0
640,640.0,12652.4672248,100065.04,0.0,0.0,0.0,12652.4672248,12652.4672248
641,641.0,13111.5413033,100065.04,0.0,0.0,0.0,13111.5413033,13111.5413033
642,642.0,14295.0,100065.04,0.0,0.0,0.0,14295.0,14295.0
643,643.0,14295.0,100065.04,13496.225427,15745.5963315,0.0,798.774572995,-1450.59633151
644,644.0,14295.0,100065.04,0.0,0.0,0.0,14295.0,14295.0
645,645.0,13496.225427,100065.04,28590.0,33355.0,0.0,-15093.774573,-19858.774573
646,646.0,12652.4672248,100065.04,23617.5011031,23617.5011031,0.0,-10965.0338783,-10965.0338783
647,647.0,8820.18498543,100065.04,8820.18498543,10290.2158163,0.0,0.0,-1470.03083091
648,648.0,12652.4672248,100065.04,0.0,0.0,0.0,12652.4672248,12652.4672248
649,649.0,14295.0,100065.04,25758.9406625,36062.5169275,0.0,-11463.9406625,-21767.5169275
650,650.0,14295.0,100065.04,14295.0,12508.125,0.0,0.0,1786.875
651,651.0,14295.0,100065.04,14295.0,12508.125,0.0,0.0,1786.875
652,652.0,13807.4058686,100065.04,21197.0717057,18547.4377425,0.0,-7389.66583708,-4740.03187387
653,653.0,14295.0,100065.04,24575.4819659,34405.6747522,0.0,-10280.4819659,-20110.6747522
654,654.0,14295.0,100065.04,14295.0,20013.0,0.0,0.0,-5718.0
655,655.0,14295.0,100065.04,28590.0,50032.5,0.0,-14295.0,-35737.5
656,656.0,9824.87602925,100065.04,20284.1256479,23664.8132559,0.0,-10459.2496187,-13839.9372267
657,657.0,14295.0,100065.04,26223.0826067,30593.5963745,0.0,-11928.0826067,-16298.5963745
658,658.0,14295.0,100065.04,14295.0,14295.0,0.0,0.0,0.0
659,659.0,9824.87602925,100065.04,19649.7520585,22924.7107349,0.0,-9824.87602925,-13099.8347057
660,660.0,14295.0,100065.04,28590.0,28590.0,0.0,-14295.0,-14295.0
661,661.0,14295.0,100065.04,0.0,0.0,0.0,14295.0,14295.0
662,662.0,14295.0,100065.04,28590.0,40026.0,0.0,-14295.0,-25731.0
663,663.0,13807.4058686,100065.04,0.0,0.0,0.0,13807.4058686,13807.4058686
664,664.0,14295.0,100065.04,14295.0,16677.5,0.0,0.0,-2382.5
665,665.0,14295.0,100065.04,27614.8117372,48325.9205402,0.0,-13319.8117372,-34030.9205402
666,666.0,14295.0,100065.04,14295.0,14295.0,0.0,0.0,0.0
667,667.0,13111.5413033,100065.04,26918.947172,31405.4383673,0.0,-13807.4058686,-18293.8970639
668,668.0,14295.0,100065.04,28590.0,50032.5,0.0,-14295.0,-35737.5
669,669.0,14295.0,100065.04,0.0,0.0,0.0,14295.0,14295.0
670,670.0,14295.0,100065.04,28590.0,33355.0,0.0,-14295.0,-19060.0
671,671.0,13807.4058686,100065.04,0.0,0.0,0.0,13807.4058686,13807.4058686
672,672.0,14295.0,100065.04,0.0,0.0,0.0,14295.0,14295.0
673,673.0,13111.5413033,100065.04,27791.225427,32423.0963315,0.0,-14679.6841237,-19311.5550282
674,674.0,14295.0,100065.04,28590.0,28590.0,0.0,-14295.0,-14295.0
675,675.0,14295.0,100065.04,28590.0,33355.0,0.0,-14295.0,-19060.0
676,676.0,14295.0,100065.04,0.0,0.0,0.0,14295.0,14295.0
677,677.0,13807.4058686,100065.04,0.0,0.0,0.0,13807.4058686,13807.4058686
678,678.0,14295.0,100065.04,0.0,0.0,0.0,14295.0,14295.0
679,679.0,13111.5413033,100065.04,0.0,0.0,0.0,13111.5413033,13111.5413033
680,680.0,14295.0,100065.04,28590.0,25016.25,0.0,-14295.0,-10721.25
681,681.0,14295.0,100065.04,28590.0,40026.0,0.0,-14295.0,-25731.0
682,682.0,8820.18498543,100065.04,0.0,0.0,0.0,8820.18498543,8820.18498543
683,683.0,14295.0,100065.04,26607.7667303,26607.7667303,0.0,-12312.7667303,-12312.7667303
684,684.0,14295.0,100065.04,0.0,0.0,0.0,14295.0,14295.0
685,685.0,11463.9406625,100065.04,0.0,0.0,0.0,11463.9406625,11463.9406625
686,686.0,1485.18405496,100065.04,1485.18405496,1485.18405496,0.0,0.0,0.0
687,687.0,8820.18498543,100065.04,5210.84547645,5210.84547645,0.0,3609.33950899,3609.33950899
688,688.0,14295.0,100065.04,14295.0,20013.0,0.0,0.0,-5718.0
689,689.0,11463.9406625,100065.04,0.0,0.0,0.0,11463.9406625,11463.9406625
690,690.0,14295.0,100065.04,0.0,0.0,0.0,14295.0,14295.0
691,691.0,14295.0,100065.04,0.0,0.0,0.0,14295.0,14295.0
692,692.0,5210.84547645,100065.04,1485.18405496,1732.71473078,0.0,3725.66142149,3478.13074566
693,693.0,0.0,100065.04,2970.36810991,2970.36810991,0.0,-2970.36810991,-2970.36810991
694,694.0,13496.225427,100065.04,13111.5413033,15296.7981872,0.0,384.684123668,-1800.57276022
695,695.0,11463.9406625,100065.04,8820.18498543,10290.2158163,0.0,2643.75567708,1173.72484618
696,696.0,2648.31589716,100065.04,19164.7869412,19164.7869412,0.0,-16516.4710441,-16516.4710441
697,697.0,0.0,100065.04,0.0,0.0,0.0,0.0,0.0
698,698.0,1485.18405496,100065.04,0.0,0.0,0.0,1485.18405496,1485.18405496
699,699.0,13496.225427,100065.04,0.0,0.0,0.0,13496.225427,13496.225427
700,700.0,13496.225427,100065.04,13496.225427,18894.7155978,0.0,0.0,-5398.4901708
701,701.0,14295.0,100065.04,0.0,0.0,0.0,14295.0,14295.0
702,702.0,13807.4058686,100065.04,26992.450854,31491.192663,0.0,-13185.0449854,-17683.7867944
703,703.0,12652.4672248,100065.04,0.0,0.0,0.0,12652.4672248,12652.4672248
704,704.0,14295.0,100065.04,27614.8117372,27614.8117372,0.0,-13319.8117372,-13319.8117372
705,705.0,14295.0,100065.04,28590.0,28590.0,0.0,-14295.0,-14295.0
706,706.0,13496.225427,100065.04,0.0,0.0,0.0,13496.225427,13496.225427
707,707.0,10705.8093479,100065.04,17525.7223079,20446.6760259,0.0,-6819.91296,-9740.86667799
708,708.0,13807.4058686,100065.04,13111.5413033,15296.7981872,0.0,695.864565281,-1489.39231861
709,709.0,14295.0,100065.04,14295.0,25016.25,0.0,0.0,-10721.25
710,710.0,14295.0,100065.04,14295.0,16677.5,0.0,0.0,-2382.5
711,711.0,14295.0,100065.04,13807.4058686,16108.6401801,0.0,487.594131382,-1813.64018005
712,712.0,12652.4672248,100065.04,0.0,0.0,0.0,12652.4672248,12652.4672248
713,713.0,13111.5413033,100065.04,0.0,0.0,0.0,13111.5413033,13111.5413033
714,714.0,13496.225427,100065.04,0.0,0.0,0.0,13496.225427,13496.225427
715,715.0,11463.9406625,100065.04,291.565886949,291.565886949,0.0,11172.3747756,11172.3747756
716,716.0,0.0,100065.04,0.0,0.0,0.0,0.0,0.0
717,717.0,7700.8462787,100065.04,16521.0312641,19274.5364748,0.0,-8820.18498543,-11573.6901961
718,718.0,0.0,100065.04,2939.88178411,4115.83449775,0.0,-2939.88178411,-4115.83449775
719,719.0,14295.0,100065.04,14295.0,16677.5,0.0,0.0,-2382.5
720,720.0,14295.0,100065.04,21288.8166918,24836.9528071,0.0,-6993.81669176,-10541.9528071
721,721.0,5210.84547645,100065.04,9824.87602925,13754.8264409,0.0,-4614.0305528,-8543.9809645
722,722.0,14295.0,100065.04,14295.0,25016.25,0.0,0.0,-10721.25
723,723.0,12652.4672248,100065.04,23817.3506513,41680.3636397,0.0,-11164.8834265,-29027.8964149
724,724.0,14295.0,100065.04,0.0,0.0,0.0,14295.0,14295.0
725,725.0,14295.0,100065.04,0.0,0.0,0.0,14295.0,14295.0
726,726.0,13807.4058686,100065.04,0.0,0.0,0.0,13807.4058686,13807.4058686
727,727.0,13496.225427,100065.04,28590.0,28590.0,0.0,-15093.774573,-15093.774573
728,728.0,14295.0,100065.04,0.0,0.0,0.0,14295.0,14295.0
729,729.0,14295.0,100065.04,0.0,0.0,0.0,14295.0,14295.0
730,730.0,13807.4058686,100065.04,14295.0,14295.0,0.0,-487.594131382,-487.594131382
731,731.0,13111.5413033,100065.04,0.0,0.0,0.0,13111.5413033,13111.5413033
732,732.0,13496.225427,100065.04,9824.87602925,13754.8264409,0.0,3671.34939776,-258.601013942
733,733.0,13807.4058686,100065.04,0.0,0.0,0.0,13807.4058686,13807.4058686
734,734.0,7700.8462787,100065.04,0.0,0.0,0.0,7700.8462787,7700.8462787
735,735.0,2648.31589716,100065.04,18645.0610147,21752.5711838,0.0,-15996.7451175,-19104.2552866
736,736.0,8820.18498543,100065.04,7700.8462787,10781.1847902,0.0,1119.33870674,-1960.99980474
737,737.0,11463.9406625,100065.04,13111.5413033,15296.7981872,0.0,-1647.60064082,-3832.85752471
738,738.0,12652.4672248,100065.04,23358.2765728,23358.2765728,0.0,-10705.8093479,-10705.8093479
739,739.0,14295.0,100065.04,14295.0,14295.0,0.0,0.0,0.0
740,740.0,11463.9406625,100065.04,0.0,0.0,0.0,11463.9406625,11463.9406625
741,741.0,13111.5413033,100065.04,0.0,0.0,0.0,13111.5413033,13111.5413033
742,742.0,14295.0,100065.04,28590.0,33355.0,0.0,-14295.0,-19060.0
743,743.0,11463.9406625,100065.04,0.0,0.0,0.0,11463.9406625,11463.9406625
744,744.0,13496.225427,100065.04,13496.225427,15745.5963315,0.0,0.0,-2249.3709045
745,745.0,14295.0,100065.04,0.0,0.0,0.0,14295.0,14295.0
746,746.0,14295.0,100065.04,42885.0,37524.375,0.0,-28590.0,-23229.375
747,747.0,14295.0,100065.04,14295.0,16677.5,0.0,0.0,-2382.5
748,748.0,14295.0,100065.04,0.0,0.0,0.0,14295.0,14295.0
749,749.0,13807.4058686,100065.04,14295.0,20013.0,0.0,-487.594131382,-6205.59413138
750,750.0,7700.8462787,100065.04,20284.1256479,23664.8132559,0.0,-12583.2793693,-15963.9669772
751,751.0,14295.0,100065.04,0.0,0.0,0.0,14295.0,14295.0
752,752.0,14295.0,100065.04,28590.0,33355.0,0.0,-14295.0,-19060.0
753,753.0,14295.0,100065.04,0.0,0.0,0.0,14295.0,14295.0
754,754.0,11463.9406625,100065.04,0.0,0.0,0.0,11463.9406625,11463.9406625
755,755.0,12652.4672248,100065.04,12652.4672248,22141.8176434,0.0,0.0,-9489.3504186
756,756.0,5210.84547645,100065.04,18645.0610147,26103.0854206,0.0,-13434.2155382,-20892.2399441
757,757.0,14295.0,100065.04,0.0,0.0,0.0,14295.0,14295.0
758,758.0,13807.4058686,100065.04,14295.0,16677.5,0.0,-487.594131382,-2870.09413138
759,759.0,13111.5413033,100065.04,13807.4058686,16108.6401801,0.0,-695.864565281,-2997.09887672
760,760.0,9824.87602925,100065.04,21931.7262888,21931.7262888,0.0,-12106.8502595,-12106.8502595
761,761.0,7700.8462787,100065.04,0.0,0.0,0.0,7700.8462787,7700.8462787
762,762.0,14295.0,100065.04,13807.4058686,12081.480135,0.0,487.594131382,2213.51986496
763,763.0,1485.18405496,100065.04,11463.9406625,16049.5169275,0.0,-9978.75660756,-14564.3328726
764,764.0,11463.9406625,100065.04,13111.5413033,22945.1972808,0.0,-1647.60064082,-11481.2566183
765,765.0,11463.9406625,100065.04,24960.1660895,24960.1660895,0.0,-13496.225427,-13496.225427
766,766.0,6487.16981485,100065.04,29350.8703626,22828.4547265,0.0,-22863.7005478,-16341.2849116
767,767.0,7700.8462787,100065.04,21472.6522102,18788.570684,0.0,-13771.8059315,-11087.7244053
768,768.0,9824.87602925,100065.04,10705.8093479,10705.8093479,0.0,-880.933318701,-880.933318701
769,769.0,12652.4672248,100065.04,12652.4672248,12652.4672248,0.0,0.0,0.0
770,770.0,7700.8462787,100065.04,11463.9406625,11463.9406625,0.0,-3763.09438382,-3763.09438382
771,771.0,10705.8093479,100065.04,11463.9406625,16049.5169275,0.0,-758.131314566,-5343.70757957
772,772.0,11463.9406625,100065.04,9824.87602925,11462.3553675,0.0,1639.06463327,1.58529505962
773,773.0,11463.9406625,100065.04,0.0,0.0,0.0,11463.9406625,11463.9406625
774,774.0,7700.8462787,100065.04,0.0,0.0,0.0,7700.8462787,7700.8462787
775,775.0,14295.0,100065.04,28590.0,28590.0,0.0,-14295.0,-14295.0
776,776.0,11463.9406625,100065.04,25758.9406625,30052.0974396,0.0,-14295.0,-18588.1567771
777,777.0,10705.8093479,100065.04,0.0,0.0,0.0,10705.8093479,10705.8093479
778,778.0,10705.8093479,100065.04,35588.8845574,27680.2435446,0.0,-24883.0752094,-16974.4341967
779,779.0,12652.4672248,100065.04,0.0,0.0,0.0,12652.4672248,12652.4672248
780,780.0,11463.9406625,100065.04,0.0,0.0,0.0,11463.9406625,11463.9406625
781,781.0,13807.4058686,100065.04,0.0,0.0,0.0,13807.4058686,13807.4058686
782,782.0,14295.0,100065.04,0.0,0.0,0.0,14295.0,14295.0
783,783.0,12652.4672248,100065.04,26148.6926518,36608.1697125,0.0,-13496.225427,-23955.7024877
784,784.0,13111.5413033,100065.04,0.0,0.0,0.0,13111.5413033,13111.5413033
785,785.0,14295.0,100065.04,14295.0,14295.0,0.0,0.0,0.0
786,786.0,11463.9406625,100065.04,13807.4058686,19330.3682161,0.0,-2343.4652061,-7866.42755355
787,787.0,14295.0,100065.04,0.0,0.0,0.0,14295.0,14295.0
788,788.0,13111.5413033,100065.04,10705.8093479,12490.1109059,0.0,2405.73195539,621.430397396
789,789.0,13496.225427,100065.04,27791.225427,32423.0963315,0.0,-14295.0,-18926.8709045
790,790.0,14295.0,100065.04,27614.8117372,27614.8117372,0.0,-13319.8117372,-13319.8117372
791,791.0,11463.9406625,100065.04,0.0,0.0,0.0,11463.9406625,11463.9406625
792,792.0,14295.0,100065.04,14295.0,16677.5,0.0,0.0,-2382.5
793,793.0,0.0,100065.04,2648.31589716,3707.64225603,0.0,-2648.31589716,-3707.64225603
794,794.0,0.0,100065.04,0.0,0.0,0.0,0.0,0.0
795,795.0,6487.16981485,100065.04,11755.5065495,11755.5065495,0.0,-5268.33673461,-5268.33673461
796,796.0,0.0,100065.04,291.565886949,510.24030216,0.0,-291.565886949,-510.24030216
797,797.0,7700.8462787,100065.04,1776.74994191,1776.74994191,0.0,5924.09633679,5924.09633679
798,798.0,14295.0,100065.04,28590.0,33355.0,0.0,-14295.0,-19060.0
799,799.0,14295.0,100065.04,0.0,0.0,0.0,14295.0,14295.0
800,800.0,11463.9406625,100065.04,10705.8093479,24980.2218119,0.0,758.131314566,-13516.2811494
801,801.0,14295.0,100065.04,0.0,0.0,0.0,14295.0,14295.0
802,802.0,11463.9406625,100065.04,38870.4819659,38870.4819659,0.0,-27406.5413033,-27406.5413033
803,803.0,14295.0,100065.04,0.0,0.0,0.0,14295.0,14295.0
804,804.0,14295.0,100065.04,14295.0,14295.0,0.0,0.0,0.0
805,805.0,14295.0,100065.04,0.0,0.0,0.0,14295.0,14295.0
806,806.0,7700.8462787,100065.04,13496.225427,13496.225427,0.0,-5795.37914831,-5795.37914831
807,807.0,1485.18405496,100065.04,4133.49995212,4133.49995212,0.0,-2648.31589716,-2648.31589716
808,808.0,0.0,100065.04,1485.18405496,1732.71473078,0.0,-1485.18405496,-1732.71473078
809,809.0,14295.0,100065.04,13111.5413033,11472.5986404,0.0,1183.45869666,2822.40135958
810,810.0,11463.9406625,100065.04,14295.0,16677.5,0.0,-2831.05933748,-5213.55933748
811,811.0,14295.0,100065.04,14295.0,20013.0,0.0,0.0,-5718.0
812,812.0,13496.225427,100065.04,0.0,0.0,0.0,13496.225427,13496.225427
813,813.0,10705.8093479,100065.04,0.0,0.0,0.0,10705.8093479,10705.8093479
814,814.0,7700.8462787,100065.04,6487.16981485,6487.16981485,0.0,1213.67646385,1213.67646385
815,815.0,12652.4672248,100065.04,12652.4672248,14761.2117623,0.0,0.0,-2108.74453747
816,816.0,14295.0,100065.04,0.0,0.0,0.0,14295.0,14295.0
817,817.0,10705.8093479,100065.04,0.0,0.0,0.0,10705.8093479,10705.8093479
818,818.0,8820.18498543,100065.04,7700.8462787,8984.32065848,0.0,1119.33870674,-164.135673045
819,819.0,14295.0,100065.04,14295.0,14295.0,0.0,0.0,0.0
820,820.0,10705.8093479,100065.04,12652.4672248,11070.9088217,0.0,-1946.65787686,-365.099473756
821,821.0,13111.5413033,100065.04,13111.5413033,15296.7981872,0.0,0.0,-2185.25688389
822,822.0,13111.5413033,100065.04,0.0,0.0,0.0,13111.5413033,13111.5413033
823,823.0,8820.18498543,100065.04,8820.18498543,12348.2589796,0.0,0.0,-3528.07399417
824,824.0,10705.8093479,100065.04,6487.16981485,7568.36478399,0.0,4218.6395331,3137.44456396
825,825.0,1485.18405496,100065.04,0.0,0.0,0.0,1485.18405496,1485.18405496
826,826.0,12652.4672248,100065.04,10705.8093479,14988.1330871,0.0,1946.65787686,-2335.66586232
827,827.0,13807.4058686,100065.04,22927.881325,22927.881325,0.0,-9120.47545641,-9120.47545641
828,828.0,9824.87602925,100065.04,0.0,0.0,0.0,9824.87602925,9824.87602925
829,829.0,11463.9406625,100065.04,11463.9406625,10030.9480797,0.0,0.0,1432.99258281
830,830.0,13496.225427,100065.04,12652.4672248,14761.2117623,0.0,843.758202199,-1264.98633527
831,831.0,291.565886949,100065.04,2939.88178411,3429.86208146,0.0,-2648.31589716,-3138.29619451
832,832.0,0.0,100065.04,0.0,0.0,0.0,0.0,0.0
833,833.0,13807.4058686,100065.04,24202.034775,28235.7072374,0.0,-10394.6289063,-14428.3013688
834,834.0,0.0,100065.04,2648.31589716,3089.70188002,0.0,-2648.31589716,-3089.70188002
835,835.0,14295.0,100065.04,42885.0,37524.375,0.0,-28590.0,-23229.375
836,836.0,14295.0,100065.04,26947.4672248,47158.0676434,0.0,-12652.4672248,-32863.0676434
837,837.0,7700.8462787,100065.04,0.0,0.0,0.0,7700.8462787,7700.8462787
838,838.0,14295.0,100065.04,27791.225427,32423.0963315,0.0,-13496.225427,-18128.0963315
839,839.0,13807.4058686,100065.04,0.0,0.0,0.0,13807.4058686,13807.4058686
840,840.0,13111.5413033,100065.04,13496.225427,15745.5963315,0.0,-384.684123668,-2634.05502817
841,841.0,12652.4672248,100065.04,0.0,0.0,0.0,12652.4672248,12652.4672248
842,842.0,14295.0,100065.04,14295.0,16677.5,0.0,0.0,-2382.5
843,843.0,13111.5413033,100065.04,13496.225427,15745.5963315,0.0,-384.684123668,-2634.05502817
844,844.0,9824.87602925,100065.04,19164.7869412,22358.9180981,0.0,-9339.91091196,-12534.0420688
845,845.0,13807.4058686,100065.04,0.0,0.0,0.0,13807.4058686,13807.4058686
846,846.0,14295.0,100065.04,14295.0,20013.0,0.0,0.0,-5718.0
847,847.0,13496.225427,100065.04,0.0,0.0,0.0,13496.225427,13496.225427
848,848.0,14295.0,100065.04,28102.4058686,39343.3682161,0.0,-13807.4058686,-25048.3682161
849,849.0,14295.0,100065.04,14295.0,20013.0,0.0,0.0,-5718.0
850,850.0,14295.0,100065.04,14295.0,20013.0,0.0,0.0,-5718.0
851,851.0,14295.0,100065.04,14295.0,16677.5,0.0,0.0,-2382.5
852,852.0,14295.0,100065.04,13111.5413033,15296.7981872,0.0,1183.45869666,-1001.79818723
853,853.0,9824.87602925,100065.04,6487.16981485,5676.27358799,0.0,3337.7062144,4148.60244125
854,854.0,14295.0,100065.04,0.0,0.0,0.0,14295.0,14295.0
855,855.0,14295.0,100065.04,26947.4672248,26947.4672248,0.0,-12652.4672248,-12652.4672248
856,856.0,7700.8462787,100065.04,14137.6512798,14137.6512798,0.0,-6436.80500107,-6436.80500107
857,857.0,7700.8462787,100065.04,12911.6917551,15063.640381,0.0,-5210.84547645,-7362.79410231
858,858.0,6487.16981485,100065.04,6487.16981485,7568.36478399,0.0,0.0,-1081.19496914
859,859.0,14295.0,100065.04,14295.0,20013.0,0.0,0.0,-5718.0
860,860.0,14295.0,100065.04,14295.0,25016.25,0.0,0.0,-10721.25
861,861.0,2648.31589716,100065.04,10705.8093479,10705.8093479,0.0,-8057.49345079,-8057.49345079
862,862.0,13807.4058686,100065.04,0.0,0.0,0.0,13807.4058686,13807.4058686
863,863.0,9824.87602925,100065.04,25271.3465311,35379.8851436,0.0,-15446.4705019,-25555.0091143
864,864.0,8820.18498543,100065.04,24960.1660895,21840.1453283,0.0,-16139.9811041,-13019.9603429
865,865.0,9824.87602925,100065.04,13111.5413033,15296.7981872,0.0,-3286.66527409,-5471.92215798
866,866.0,12652.4672248,100065.04,0.0,0.0,0.0,12652.4672248,12652.4672248
867,867.0,13496.225427,100065.04,0.0,0.0,0.0,13496.225427,13496.225427
868,868.0,12652.4672248,100065.04,0.0,0.0,0.0,12652.4672248,12652.4672248
869,869.0,14295.0,100065.04,0.0,0.0,0.0,14295.0,14295.0
870,870.0,14295.0,100065.04,0.0,0.0,0.0,14295.0,14295.0
871,871.0,13807.4058686,100065.04,13807.4058686,16108.6401801,0.0,0.0,-2301.23431144
872,872.0,9824.87602925,100065.04,19525.9943334,22780.3267223,0.0,-9701.11830414,-12955.450693
873,873.0,14295.0,100065.04,27791.225427,32423.0963315,0.0,-13496.225427,-18128.0963315
874,874.0,14295.0,100065.04,13807.4058686,16108.6401801,0.0,487.594131382,-1813.64018005
875,875.0,12652.4672248,100065.04,11463.9406625,11463.9406625,0.0,1188.52656229,1188.52656229
876,876.0,8820.18498543,100065.04,12652.4672248,14761.2117623,0.0,-3832.28223937,-5941.02677684
877,877.0,14295.0,100065.04,14295.0,16677.5,0.0,0.0,-2382.5
878,878.0,13111.5413033,100065.04,25271.3465311,25271.3465311,0.0,-12159.8052278,-12159.8052278
879,879.0,12652.4672248,100065.04,0.0,0.0,0.0,12652.4672248,12652.4672248
880,880.0,12652.4672248,100065.04,40443.6926518,40443.6926518,0.0,-27791.225427,-27791.225427
881,881.0,7700.8462787,100065.04,0.0,0.0,0.0,7700.8462787,7700.8462787
882,882.0,12652.4672248,100065.04,0.0,0.0,0.0,12652.4672248,12652.4672248
883,883.0,8820.18498543,100065.04,7700.8462787,8984.32065848,0.0,1119.33870674,-164.135673045
884,884.0,14295.0,100065.04,0.0,0.0,0.0,14295.0,14295.0
885,885.0,12652.4672248,100065.04,0.0,0.0,0.0,12652.4672248,12652.4672248
886,886.0,14295.0,100065.04,24202.034775,33882.8486849,0.0,-9907.03477495,-19587.8486849
887,887.0,14295.0,100065.04,14295.0,14295.0,0.0,0.0,0.0
888,888.0,14295.0,100065.04,26607.7667303,26607.7667303,0.0,-12312.7667303,-12312.7667303
889,889.0,14295.0,100065.04,14295.0,16677.5,0.0,0.0,-2382.5
890,890.0,13496.225427,100065.04,13496.225427,15745.5963315,0.0,0.0,-2249.3709045
891,891.0,7700.8462787,100065.04,12652.4672248,11070.9088217,0.0,-4951.62094611,-3370.06254301
892,892.0,2648.31589716,100065.04,0.0,0.0,0.0,2648.31589716,2648.31589716
893,893.0,14295.0,100065.04,14295.0,16677.5,0.0,0.0,-2382.5
894,894.0,14295.0,100065.04,0.0,0.0,0.0,14295.0,14295.0
895,895.0,14295.0,100065.04,0.0,0.0,0.0,14295.0,14295.0
896,896.0,12652.4672248,100065.04,0.0,0.0,0.0,12652.4672248,12652.4672248
897,897.0,13807.4058686,100065.04,13807.4058686,16108.6401801,0.0,0.0,-2301.23431144
898,898.0,9824.87602925,100065.04,17863.3127013,20840.5314848,0.0,-8038.43667201,-11015.6554555
899,899.0,14295.0,100065.04,0.0,0.0,0.0,14295.0,14295.0
900,900.0,14295.0,100065.04,0.0,0.0,0.0,14295.0,14295.0
901,901.0,14295.0,100065.04,0.0,0.0,0.0,14295.0,14295.0
902,902.0,14295.0,100065.04,0.0,0.0,0.0,14295.0,14295.0
903,903.0,14295.0,100065.04,14295.0,16677.5,0.0,0.0,-2382.5
904,904.0,14295.0,100065.04,0.0,0.0,0.0,14295.0,14295.0
905,905.0,13807.4058686,100065.04,0.0,0.0,0.0,13807.4058686,13807.4058686
906,906.0,13807.4058686,100065.04,0.0,0.0,0.0,13807.4058686,13807.4058686
907,907.0,14295.0,100065.04,0.0,0.0,0.0,14295.0,14295.0
908,908.0,14295.0,100065.04,14295.0,16677.5,0.0,0.0,-2382.5
909,909.0,14295.0,100065.04,0.0,0.0,0.0,14295.0,14295.0
910,910.0,291.565886949,100065.04,14295.0,16677.5,0.0,-14003.4341131,-16385.9341131
911,911.0,1485.18405496,100065.04,1485.18405496,1732.71473078,0.0,0.0,-247.530675826
912,912.0,9824.87602925,100065.04,13496.225427,15745.5963315,0.0,-3671.34939776,-5920.72030226
913,913.0,14295.0,100065.04,0.0,0.0,0.0,14295.0,14295.0
914,914.0,14295.0,100065.04,0.0,0.0,0.0,14295.0,14295.0
915,915.0,12652.4672248,100065.04,12652.4672248,14761.2117623,0.0,0.0,-2108.74453747
916,916.0,11463.9406625,100065.04,0.0,0.0,0.0,11463.9406625,11463.9406625
917,917.0,13111.5413033,100065.04,0.0,0.0,0.0,13111.5413033,13111.5413033
918,918.0,13111.5413033,100065.04,0.0,0.0,0.0,13111.5413033,13111.5413033
919,919.0,13496.225427,100065.04,7700.8462787,7700.8462787,0.0,5795.37914831,5795.37914831
920,920.0,13496.225427,100065.04,22927.881325,26749.1948792,0.0,-9431.65589803,-13252.9694522
921,921.0,13496.225427,100065.04,0.0,0.0,0.0,13496.225427,13496.225427
922,922.0,14295.0,100065.04,0.0,0.0,0.0,14295.0,14295.0
923,923.0,13496.225427,100065.04,0.0,0.0,0.0,13496.225427,13496.225427
924,924.0,14295.0,100065.04,28590.0,33355.0,0.0,-14295.0,-19060.0
925,925.0,13807.4058686,100065.04,17525.7223079,24536.0112311,0.0,-3718.31643933,-10728.6053625
926,926.0,14295.0,100065.04,14295.0,25016.25,0.0,0.0,-10721.25
927,927.0,14295.0,100065.04,14295.0,16677.5,0.0,0.0,-2382.5
928,928.0,13807.4058686,100065.04,0.0,0.0,0.0,13807.4058686,13807.4058686
929,929.0,14295.0,100065.04,27303.6312956,31854.2365116,0.0,-13008.6312956,-17559.2365116
930,930.0,14295.0,100065.04,0.0,0.0,0.0,14295.0,14295.0
931,931.0,14295.0,100065.04,0.0,0.0,0.0,14295.0,14295.0
932,932.0,14295.0,100065.04,0.0,0.0,0.0,14295.0,14295.0
933,933.0,12652.4672248,100065.04,7700.8462787,8984.32065848,0.0,4951.62094611,3668.14656633
934,934.0,14295.0,100065.04,28590.0,28590.0,0.0,-14295.0,-14295.0
935,935.0,13111.5413033,100065.04,0.0,0.0,0.0,13111.5413033,13111.5413033
936,936.0,14295.0,100065.04,28590.0,40026.0,0.0,-14295.0,-25731.0
937,937.0,13111.5413033,100065.04,28102.4058686,28102.4058686,0.0,-14990.8645653,-14990.8645653
938,938.0,13496.225427,100065.04,28590.0,25016.25,0.0,-15093.774573,-11520.024573
939,939.0,14295.0,100065.04,0.0,0.0,0.0,14295.0,14295.0
940,940.0,9824.87602925,100065.04,11463.9406625,13374.5974396,0.0,-1639.06463327,-3549.72141035
941,941.0,12652.4672248,100065.04,27614.8117372,32217.2803601,0.0,-14962.3445124,-19564.8131353
942,942.0,9824.87602925,100065.04,24119.8760292,28139.8553675,0.0,-14295.0,-18314.9793382
943,943.0,13807.4058686,100065.04,0.0,0.0,0.0,13807.4058686,13807.4058686
944,944.0,14295.0,100065.04,14295.0,16677.5,0.0,0.0,-2382.5
945,945.0,13496.225427,100065.04,13111.5413033,18356.1578247,0.0,384.684123668,-4859.93239767
946,946.0,14295.0,100065.04,42397.4058686,32975.76012,0.0,-28102.4058686,-18680.76012
947,947.0,14295.0,100065.04,14295.0,16677.5,0.0,0.0,-2382.5
948,948.0,14295.0,100065.04,0.0,0.0,0.0,14295.0,14295.0
949,949.0,13496.225427,100065.04,0.0,0.0,0.0,13496.225427,13496.225427
950,950.0,13111.5413033,100065.04,0.0,0.0,0.0,13111.5413033,13111.5413033
951,951.0,14295.0,100065.04,0.0,0.0,0.0,14295.0,14295.0
952,952.0,14295.0,100065.04,14295.0,16677.5,0.0,0.0,-2382.5
953,953.0,13496.225427,100065.04,13111.5413033,13111.5413033,0.0,384.684123668,384.684123668
954,954.0,13496.225427,100065.04,0.0,0.0,0.0,13496.225427,13496.225427
955,955.0,12652.4672248,100065.04,0.0,0.0,0.0,12652.4672248,12652.4672248
956,956.0,11463.9406625,100065.04,17951.1104774,20942.9622236,0.0,-6487.16981485,-9479.02156108
957,957.0,2648.31589716,100065.04,0.0,0.0,0.0,2648.31589716,2648.31589716
958,958.0,10705.8093479,100065.04,25758.9406625,30052.0974396,0.0,-15053.1313146,-19346.2880917
959,959.0,1485.18405496,100065.04,0.0,0.0,0.0,1485.18405496,1485.18405496
960,960.0,10705.8093479,100065.04,11463.9406625,16049.5169275,0.0,-758.131314566,-5343.70757957
961,961.0,10705.8093479,100065.04,7700.8462787,8984.32065848,0.0,3004.96306925,1721.48868947
962,962.0,11463.9406625,100065.04,13111.5413033,15296.7981872,0.0,-1647.60064082,-3832.85752471
963,963.0,14295.0,100065.04,28590.0,40026.0,0.0,-14295.0,-25731.0
964,964.0,14295.0,100065.04,0.0,0.0,0.0,14295.0,14295.0
965,965.0,14295.0,100065.04,27791.225427,27791.225427,0.0,-13496.225427,-13496.225427
966,966.0,7700.8462787,100065.04,23358.2765728,27251.3226682,0.0,-15657.4302941,-19550.4763895
967,967.0,14295.0,100065.04,0.0,0.0,0.0,14295.0,14295.0
968,968.0,11463.9406625,100065.04,9824.87602925,13754.8264409,0.0,1639.06463327,-2290.88577843
969,969.0,9824.87602925,100065.04,0.0,0.0,0.0,9824.87602925,9824.87602925
970,970.0,13496.225427,100065.04,0.0,0.0,0.0,13496.225427,13496.225427
971,971.0,14295.0,100065.04,14295.0,14295.0,0.0,0.0,0.0
972,972.0,13807.4058686,100065.04,0.0,0.0,0.0,13807.4058686,13807.4058686
973,973.0,14295.0,100065.04,13496.225427,18894.7155978,0.0,798.774572995,-4599.71559781
974,974.0,12652.4672248,100065.04,0.0,0.0,0.0,12652.4672248,12652.4672248
975,975.0,14295.0,100065.04,0.0,0.0,0.0,14295.0,14295.0
976,976.0,13807.4058686,100065.04,0.0,0.0,0.0,13807.4058686,13807.4058686
977,977.0,14295.0,100065.04,0.0,0.0,0.0,14295.0,14295.0
978,978.0,14295.0,100065.04,14295.0,20013.0,0.0,0.0,-5718.0
979,979.0,11463.9406625,100065.04,0.0,0.0,0.0,11463.9406625,11463.9406625
980,980.0,13807.4058686,100065.04,0.0,0.0,0.0,13807.4058686,13807.4058686
981,981.0,13111.5413033,100065.04,0.0,0.0,0.0,13111.5413033,13111.5413033
982,982.0,14295.0,100065.04,0.0,0.0,0.0,14295.0,14295.0
983,983.0,14295.0,100065.04,28590.0,50032.5,0.0,-14295.0,-35737.5
984,984.0,14295.0,100065.04,28590.0,33355.0,0.0,-14295.0,-19060.0
985,985.0,14295.0,100065.04,14295.0,14295.0,0.0,0.0,0.0
986,986.0,14295.0,100065.04,28590.0,33355.0,0.0,-14295.0,-19060.0
987,987.0,14295.0,100065.04,13496.225427,18894.7155978,0.0,798.774572995,-4599.71559781
988,988.0,13807.4058686,100065.04,14295.0,20013.0,0.0,-487.594131382,-6205.59413138
989,989.0,14295.0,100065.04,0.0,0.0,0.0,14295.0,14295.0
990,990.0,14295.0,100065.04,0.0,0.0,0.0,14295.0,14295.0
991,991.0,13807.4058686,100065.04,13496.225427,13496.225427,0.0,311.180441613,311.180441613
992,992.0,14295.0,100065.04,0.0,0.0,0.0,14295.0,14295.0
993,993.0,13807.4058686,100065.04,14295.0,14295.0,0.0,-487.594131382,-487.594131382
994,994.0,14295.0,100065.04,0.0,0.0,0.0,14295.0,14295.0
995,995.0,14295.0,100065.04,0.0,0.0,0.0,14295.0,14295.0
996,996.0,5210.84547645,100065.04,11463.9406625,16049.5169275,0.0,-6253.09518607,-10838.6714511
997,997.0,14295.0,100065.04,28590.0,28590.0,0.0,-14295.0,-14295.0
998,998.0,13496.225427,100065.04,13807.4058686,13807.4058686,0.0,-311.180441613,-311.180441613
999,999.0,14295.0,100065.04,14295.0,14295.0,0.0,0.0,0.0
