,0,1,2
0,146492.353772,169715.04,123367.447904
1,156545.008406,135245.59953,74993.6231841
2,101962.519259,163212.235518,110741.305956
3,91035.0728763,118977.68113,83735.0777327
4,72460.536807,88181.6637762,43293.1846017
5,31840.6740013,133370.121752,122852.194502
6,50762.7054507,148709.956028,14959.4533034
7,89448.7405358,149570.823274,39325.3828005
8,99454.9767929,160110.51358,77080.0
9,152887.5,169715.04,81420.0
10,141738.767676,159311.313537,65225.3778943
11,164192.546175,165431.074245,95398.0194605
12,97371.1421641,163501.378029,90100.2003676
13,161982.752143,144226.824599,73922.2486683
14,99887.2817348,166571.08381,140888.514269
15,152887.5,169715.04,109621.034318
16,152887.5,169715.04,95712.5
17,152887.5,169715.04,84021.2746448
18,152887.5,169715.04,76442.5
19,135938.091345,158791.948126,52835.0
20,117203.920044,140832.434592,47885.9415732
21,148371.555337,169715.04,148689.36984
22,152887.5,169715.04,101261.753425
23,150108.917803,169715.04,165036.417803
24,134838.814814,166879.478539,84408.9556544
25,93044.3595863,146471.14785,165658.300875
26,111623.047407,148277.822171,187304.232917
27,151012.097999,169715.04,116926.455671
28,143780.73235,169715.04,65550.8274289
29,46031.0678043,57925.8623854,71804.8206348
30,35515.5336222,58235.4855858,21405.2810563
31,122949.626532,125177.794033,81697.2479503
32,97495.7469992,136039.48875,143436.116844
33,102348.762618,149923.578392,132784.228371
34,101114.387325,149894.830836,48490.0
35,13061.0016108,45562.8585047,77627.246975
36,60209.1290334,107387.900864,41203.1394419
37,60454.3354615,89237.0423318,53138.2075795
38,73167.5686228,103948.936165,43053.9702595
39,93300.7729118,164803.100539,131969.365025
40,164060.347732,144358.67984,80128.4252701
41,177316.264496,144796.320853,47721.4398458
42,128139.687788,150477.353441,66993.0029713
43,83333.4529095,160359.216361,83002.9709437
44,170686.052996,142603.916365,172184.995065
45,152887.5,168762.897416,138595.0
46,99754.1143147,162689.810661,131423.940663
47,138142.207453,153296.205983,191051.138028
48,188678.200924,152975.986819,149952.817366
49,144610.440373,156268.50378,203123.436963
50,96861.2439646,161481.325215,97597.0653027
51,150937.294022,169715.04,145785.075703
52,151012.097999,169715.04,187454.486152
53,127890.75048,164300.742112,89920.2794395
54,97032.9966869,163324.0276,103162.417742
55,151912.397011,169715.04,126755.654497
56,151161.695127,155923.394874,78364.8667689
57,151742.702656,169715.04,155255.090809
58,111728.592707,162232.063093,136463.621563
59,148717.578108,169715.04,56376.225427
60,117400.84841,146829.992319,93887.8923318
61,90084.0913226,155303.987262,170174.115571
62,88780.0715249,121617.447985,93593.6395829
63,26915.6004537,0.04,44591.2840601
64,23099.8452907,52749.1436993,49247.5967201
65,12234.2778107,0.14,29471.1916148
66,63900.5209296,100649.229073,39621.6037384
67,18564.2956847,38458.2147136,9429.20543798
68,152887.5,169715.04,120026.295568
69,110829.215557,164386.734142,57983.3886927
70,87724.8711637,161867.520715,109199.75001
71,152887.5,169715.04,42320.3564323
72,144375.618039,168202.726978,104481.541303
73,152887.5,169715.04,162837.5
74,150280.090809,169715.04,81420.0
75,152887.5,169715.04,90737.5
76,92297.8612113,136284.449154,93770.0034315
77,31688.6376693,101084.349119,106535.185907
78,28378.4999521,86712.8708493,31348.3485853
79,133083.311793,161659.407914,146966.626218
80,105237.350651,164997.494296,136198.955671
81,213407.832731,160194.197861,131771.63
82,79998.3395467,159281.079623,98397.9053117
83,72275.1468431,135013.363833,73407.0826125
84,86203.7884645,129005.492302,187316.045679
85,101947.217235,165069.978998,105032.5
86,150520.789577,167977.408681,131058.806736
87,58240.234394,151001.207563,23418.0171588
88,72796.3590783,145667.761768,62678.0160935
89,152887.5,167849.54099,172155.0
90,52674.2009035,153752.776408,141534.545893
91,57048.0708369,153431.336896,161908.470178
92,95363.6381273,161425.739429,105077.976187
93,45342.5479354,135168.799002,89699.50033
94,32079.8560465,121110.306846,79880.6031474
95,46702.2660148,117582.147849,74098.7162926
96,98797.5559092,144671.809494,143460.82708
97,53835.2106803,153349.644988,56625.6099691
98,88744.2474252,141014.943679,91701.5008679
99,142049.480477,132834.319583,70318.4032719
100,42918.372559,66332.4164512,84535.6625325
101,18570.5956022,22502.9178034,119255.042215
102,32877.2517071,58026.7342893,46482.7977544
103,59092.2997542,155122.000694,81420.0
104,23612.8186766,27509.761364,0.0
105,133219.38035,139791.362642,54742.188058
106,153805.948465,132783.951233,63209.5803076
107,5480.68896711,44875.5745611,20761.8478895
108,152088.725427,168765.844205,113218.955671
109,130413.828767,142935.481763,63874.033611
110,131058.933293,155403.759527,95927.6946447
111,91215.1101516,130566.045327,129406.89588
112,146790.783941,141033.649997,143503.61429
113,24101.4126611,38769.0983962,60786.4771077
114,50070.2668015,91746.4386726,49841.4111247
115,146423.586769,169715.04,87167.0491435
116,112001.201266,118355.414172,83568.1636396
117,172102.215272,156670.283833,217299.883521
118,152887.5,169715.04,119953.749692
119,153198.299759,156827.899357,116977.455768
120,146240.600454,169715.04,114147.52706
121,151742.702656,169715.04,68018.2784089
122,77338.8500164,108228.020651,64424.3236325
123,50396.6505525,94351.8607272,81677.1653434
124,103266.120026,145872.769827,65184.4332637
125,86626.8341811,146819.58588,23067.3243604
126,124314.193928,123129.513399,46413.8760102
127,14959.4533034,1602.52796095,51352.015011
128,109646.87434,116266.904052,143125.739578
129,166522.7778,166557.998122,160321.780282
130,60692.8906076,93757.1246268,54873.2414001
131,40974.2915544,79321.4990472,55532.4672248
132,139701.58222,169715.04,124304.187659
133,195310.87655,150725.17817,59411.4600772
134,162508.990067,138077.662276,79793.2028055
135,132273.135009,129579.37939,101608.985665
136,163875.145787,146078.698985,154468.911817
137,101041.26683,166037.459574,172202.976187
138,94184.939819,163035.474096,193034.893037
139,151742.702656,169715.04,85812.8356059
140,152887.5,169715.04,165612.575621
141,84183.314325,142465.124322,57396.3648802
142,92461.8911197,98945.8537661,9828.43700656
143,149031.081233,169715.04,43202.3066605
144,150276.221245,157364.454351,87716.9901973
145,56637.9521045,101304.455922,93120.4298783
146,42569.2841342,83184.6880967,56528.6005971
147,149602.721706,169715.04,133617.5
148,134387.681358,166550.531799,126360.037851
149,97011.2387681,164509.665866,52881.3288155
150,125346.262838,155619.57409,47040.2794395
151,67242.5695993,139343.816165,108958.1834
152,77189.4774802,149956.376111,52247.9761875
153,83871.897115,154002.263131,107243.548935
154,150036.99501,167930.923154,107789.49501
155,61882.7158332,159318.24606,138905.12711
156,93605.966805,166127.546287,166985.517159
157,182484.710792,157594.126051,210322.673901
158,114888.342531,133496.476804,173025.235832
159,174057.543292,151428.733321,112950.049412
160,130203.976135,126776.481057,94094.6730102
161,15834.0489825,51102.9624294,74354.9028643
162,96433.4982495,102389.854223,43515.321766
163,151742.702656,169715.04,107613.832072
164,190225.299265,162506.669411,130449.5896
165,77298.1943911,102125.289303,49596.6122196
166,106199.051202,126743.04344,103208.298774
167,77143.6785684,111682.095496,80570.9430065
168,128183.789556,140422.730231,43124.1798618
169,147712.873473,169715.04,94108.993522
170,149031.081233,169715.04,108206.018755
171,86449.6557868,95507.9767819,71213.5751844
172,108895.860583,149651.958201,54575.9023696
173,113783.618831,130203.911221,73404.0871674
174,136133.549936,143041.333663,166976.550379
175,67942.1559941,100188.200543,129459.275257
176,126898.042112,135365.84602,75867.9076954
177,200497.581836,163136.872348,98077.5749722
178,189102.61501,157623.763487,134550.378982
179,112289.036113,152128.263779,129455.567277
180,54419.0854349,64868.3444429,46707.5770043
181,37153.5308655,79784.506736,64792.6751414
182,103450.987432,142641.598004,89790.4979756
183,135852.65351,167178.642843,97146.6583264
184,152887.5,169715.04,53625.0378515
185,109668.591349,161733.777981,98467.3443633
186,52549.3839072,150564.731554,123443.845563
187,143092.615149,149392.978136,89470.3778943
188,118271.154248,132140.706235,176297.439892
189,45836.9555949,142836.048482,64997.4698968
190,88599.2144998,131673.654665,100121.11933
191,98361.4947251,159650.250979,117003.309348
192,152887.5,169715.04,105032.5
193,103979.502,167149.505741,62785.0
194,111321.260633,152302.851172,97349.4861518
195,93470.9072934,159818.889137,52704.8760292
196,193955.964802,162974.628605,133690.278179
197,170119.952868,161367.055215,214286.464106
198,134458.211579,168043.692826,147302.097999
199,207885.320551,166100.814534,136558.453351
200,152887.5,169715.04,100055.0
201,152887.5,169715.04,125570.0
202,129987.457281,150196.617052,171108.912952
203,86832.8893366,155536.770196,127775.459675
204,197218.138168,154991.731006,121353.666321
205,113524.906336,136370.225809,90909.0974513
206,152887.5,169715.04,68295.220597
207,182204.551384,160467.181224,79590.1415699
208,146914.0989,169715.04,130109.277317
209,107794.514149,151874.113042,118118.776158
210,154615.907332,141359.298579,68775.6244293
211,161680.851125,150390.841447,52628.3099267
212,167250.026748,154898.689257,149886.393619
213,152399.905869,169715.04,111912.19989
214,150280.090809,169715.04,94340.2977544
215,99887.2817348,165841.442253,65171.7300176
216,149058.17773,169715.04,155912.294022
217,151912.397011,169715.04,109032.397011
218,152887.5,169715.04,115615.0
219,148336.518892,169715.04,129277.883753
220,148644.020005,169715.04,72735.0
221,151742.702656,169715.04,37713.0171588
222,151742.702656,169715.04,129083.017159
223,149346.518632,169715.04,105837.94355
224,98165.2238631,166269.398707,59126.9578213
225,99353.7504254,166145.354551,78950.4843836
226,72045.8429146,138607.711082,119481.591908
227,72658.0580405,143280.26598,80193.2735404
228,128204.53311,162047.336792,34354.1809897
229,102841.060663,111256.232879,41548.9730973
230,52399.6813922,154750.962732,32715.1163565
231,89569.8331782,155308.393463,46240.8462787
232,104812.023269,168971.169967,72594.9749801
233,152887.5,169715.04,95712.5
234,152887.5,169715.04,99567.4058686
235,112002.203438,162134.603316,100589.591591
236,105674.783746,152506.733535,115656.338514
237,114260.240327,161520.161484,129910.0
238,51395.8134825,142019.020664,63164.1256479
239,75711.2331683,149931.165394,135263.033822
240,151113.622438,169715.04,38052.4058686
241,152887.5,169715.04,38540.0
242,152399.905869,169715.04,114788.017159
243,136196.455671,166238.386675,106781.972829
244,82601.2616878,152332.909111,193980.192441
245,52080.9243295,157381.411964,121746.426774
246,104747.774614,166475.726141,196047.740507
247,152887.5,169715.04,87030.0
248,152887.5,167979.523622,107608.955671
249,145337.586242,140751.969797,110250.381847
250,150524.503867,169715.04,141020.314514
251,134136.521954,148260.466914,81888.8350003
252,152887.5,169715.04,134250.0
253,152887.5,169715.04,167812.5
254,152887.5,169715.04,101528.014039
255,150280.090809,169715.04,149923.621826
256,149304.98782,169715.04,107079.776306
257,205422.981762,164095.012433,84973.4792415
258,219971.152344,166362.795972,131447.205661
259,147671.202967,169715.04,141525.223759
260,204993.503305,161031.959093,133911.920722
261,128159.932072,165808.021185,95231.0287294
262,146636.106351,169715.04,140806.597242
263,151255.108524,169715.04,42880.0
264,152887.5,169715.04,130542.5
265,138294.364987,122963.755402,87773.7645047
266,106282.850275,139349.45395,142980.667834
267,150108.917803,169715.04,115632.175289
268,148335.040241,169715.04,176909.696237
269,152887.5,169715.04,162792.164459
270,149041.755489,151326.133271,134725.971872
271,151702.597525,158339.110544,110864.623938
272,152887.5,169715.04,63655.1859074
273,152921.376655,158452.841932,120287.785503
274,155860.007952,149116.975803,64521.0454515
275,152887.5,169715.04,195383.534318
276,152887.5,169715.04,91370.0
277,152887.5,169715.04,147910.0
278,152887.5,169715.04,124932.5
279,152887.5,169715.04,220607.426004
280,167102.748407,151683.108891,41799.079788
281,180490.337715,151528.066741,31622.9104093
282,33504.913214,60445.6959387,27020.8899021
283,103340.676735,132307.065145,93861.1087732
284,62764.0509228,74940.9886977,100428.734311
285,103905.675319,120973.159489,62736.5732945
286,134367.276582,145302.177825,99481.0417964
287,80426.9286136,125176.351499,74724.6487208
288,84318.0124217,103945.506779,61570.0548093
289,37197.2510578,40737.2767724,65756.1378738
290,494.509613786,2331.55977931,494.509613786
291,95641.0750597,124850.99811,34761.9993417
292,21459.1862795,6304.76253758,35298.7993653
293,0.0,3399.42221745,69943.1106083
294,82291.3673355,100146.721106,84162.4870664
295,192849.565237,159331.268089,120405.724293
296,106156.579073,142328.00593,91593.6937134
297,152887.5,169715.04,245859.902443
298,142212.740327,159989.272901,149330.426235
299,125563.460629,155223.24906,86272.9245999
300,175731.992773,163907.802989,111369.748105
301,152887.5,169715.04,130605.645639
302,133664.438119,143188.060682,110763.763227
303,8837.84180318,26500.3911692,14750.3230943
304,7700.8462787,1960.54633632,48184.8019492
305,874.595679074,0.12,3522.91157624
306,60429.5247454,79922.0498052,54280.2594355
307,145701.388702,131332.576148,41924.3728784
308,28577.2417732,77123.9014169,31765.7231282
309,86442.0625338,108453.257531,55554.7308796
310,66638.8120892,78075.4458103,105831.533511
311,72034.596746,131928.261318,38250.7222306
312,129056.556024,123360.041266,76918.5665237
313,89987.2464481,119690.508879,21949.3831065
314,79251.6639438,120319.187404,136072.659728
315,65121.6665792,128196.830322,60527.3459261
316,91761.7293816,151691.456727,58632.8122147
317,5037.88561209,39978.9894325,35809.0130118
318,152887.5,169715.04,121225.0
319,148958.00113,158261.140751,71279.8903993
320,91953.8442928,132561.132145,52545.3741343
321,41533.3668116,108604.634722,33598.8674995
322,128716.458822,142934.099787,88362.4659303
323,83763.9376648,118474.055124,61450.7465213
324,68697.2990992,81564.1309522,40276.9442767
325,83929.2412647,146310.156021,65895.2638818
326,8846.94954888,93675.2527823,76502.075745
327,14818.2869026,71218.0222591,34674.2831951
328,46718.4918295,70728.3237853,78054.0107285
329,50277.0694316,87093.6186692,39330.0378515
330,63148.8309596,86878.3117051,64863.2802845
331,27080.2585964,60243.7264244,34784.252028
332,109431.478759,148458.517268,104230.481264
333,103808.045697,126487.691681,140559.120542
334,15494.2183342,15602.0095521,47607.9017788
335,9129.40769013,81376.6148776,77380.9851121
336,99200.3049418,130114.592407,149615.358427
337,110592.610463,113586.984803,102446.999748
338,109523.518956,138068.837344,73102.7217695
339,69335.0440757,155350.338365,91578.0140389
340,176386.428368,165766.828752,140778.918996
341,150728.938314,169715.04,51651.5413033
342,68956.9050957,127751.903812,114488.971292
343,102011.870683,136864.592039,0.0
344,130149.019348,167383.866602,84297.3881529
345,102689.527724,124774.004906,77618.8796869
346,122673.206144,164326.97708,90594.3459742
347,80665.8773689,125623.757088,64232.5964995
348,96073.3828408,137986.316188,86964.8442197
349,208414.2363,158199.513545,159767.260086
350,151424.888153,169715.04,37356.5413033
351,151912.397011,169715.04,184984.888153
352,152887.5,169715.04,124932.5
353,223035.937057,155652.214739,177516.139074
354,151704.041303,168796.840809,139860.0
355,152887.5,169715.04,62785.0
356,152887.5,168076.59354,88589.1862795
357,78696.0471572,128798.575489,112290.233695
358,93914.818126,132939.54875,91576.7331595
359,169600.313587,151922.515711,139181.162536
360,81125.9269935,132586.662614,201482.256233
361,37016.7706094,96978.8427746,27864.9916288
362,47933.4848718,64979.1150536,45421.2423081
363,32868.5724456,121218.471932,146457.064064
364,10481.9375278,29666.7256801,15579.9444169
